<?xml version="1.0" encoding="utf-8"?>
<!-- Generator: Adobe Illustrator 16.0.4, SVG Export Plug-In . SVG Version: 6.00 Build 0)  -->
<!DOCTYPE svg PUBLIC "-//W3C//DTD SVG 1.1//EN" "http://www.w3.org/Graphics/SVG/1.1/DTD/svg11.dtd">
<svg version="1.1" id="Layer_1" xmlns="http://www.w3.org/2000/svg" xmlns:xlink="http://www.w3.org/1999/xlink" x="0px" y="0px"
	 width="40px" height="40px" viewBox="-14 -14 40 40" enable-background="new -14 -14 40 40" xml:space="preserve">
<g>
	<g>
		<rect x="-14" y="4" fill="#878E92" width="40" height="4"/>
		<rect x="4" y="-14" fill="#878E92" width="4" height="40"/>
	</g>
</g>
</svg>
