<?xml version="1.0" encoding="UTF-8" standalone="no"?>
<!-- Created with Inkscape (http://www.inkscape.org/) -->

<svg
   xmlns:dc="http://purl.org/dc/elements/1.1/"
   xmlns:cc="http://creativecommons.org/ns#"
   xmlns:rdf="http://www.w3.org/1999/02/22-rdf-syntax-ns#"
   xmlns:svg="http://www.w3.org/2000/svg"
   xmlns="http://www.w3.org/2000/svg"
   xmlns:xlink="http://www.w3.org/1999/xlink"
   version="1.1"
   width="20"
   height="20"
   viewBox="0 0 20 20"
   id="Layer_1"
   xml:space="preserve"><metadata
   id="metadata2085"><rdf:RDF><cc:Work
       rdf:about=""><dc:format>image/svg+xml</dc:format><dc:type
         rdf:resource="http://purl.org/dc/dcmitype/StillImage" /><dc:title></dc:title></cc:Work></rdf:RDF></metadata><defs
   id="defs2083" />
<style
   type="text/css"
   id="style3" />






















<g
   id="g477">
	<defs
   id="defs479">
		<polygon
   points="6.328,7.977 5.073,7.977 5.073,6.586 8.06,6.586 8.06,13.404 6.328,13.404 "
   id="SVGID_97_" />
	</defs>
	<clipPath
   id="SVGID_98_">
		<use
   id="use483"
   style="overflow:visible"
   x="0"
   y="0"
   width="20"
   height="20"
   xlink:href="#SVGID_97_" />
	</clipPath>
	<g
   clip-path="url(#SVGID_98_)"
   id="g485">
		<defs
   id="defs487">
			<rect
   width="1400"
   height="1529"
   x="-869.99597"
   y="-325.996"
   id="SVGID_99_" />
		</defs>
		<clipPath
   id="SVGID_100_">
			<use
   id="use491"
   style="overflow:visible"
   x="0"
   y="0"
   width="20"
   height="20"
   xlink:href="#SVGID_99_" />
		</clipPath>
		<rect
   width="12.987"
   height="16.818001"
   x="0.072999999"
   y="1.586"
   clip-path="url(#SVGID_100_)"
   id="rect493"
   style="fill:#b0b3b7" />
	</g>
</g>
<g
   id="g495">
	<defs
   id="defs497">
		<path
   d="m 11.152,8.444 c 0,0.486 0.35,0.758 0.982,0.758 0.632,0 0.982,-0.272 0.982,-0.758 0,-0.506 -0.35,-0.788 -0.982,-0.788 -0.632,0 -0.982,0.282 -0.982,0.788 z m -0.174,2.888 c 0,0.574 0.408,0.895 1.157,0.895 0.75,0 1.168,-0.311 1.168,-0.895 0,-0.564 -0.418,-0.885 -1.168,-0.885 -0.749,0 -1.157,0.321 -1.157,0.885 z m 3.588,-2.986 c 0,0.594 -0.32,1.119 -0.855,1.411 0.748,0.311 1.215,0.963 1.215,1.722 0,1.225 -1.088,2.004 -2.791,2.004 -1.702,0 -2.792,-0.77 -2.792,-1.977 0,-0.777 0.506,-1.438 1.294,-1.749 C 10.063,9.436 9.694,8.891 9.694,8.298 c 0,-1.09 0.953,-1.78 2.432,-1.78 1.497,0 2.44,0.71 2.44,1.828 z"
   id="SVGID_101_" />
	</defs>
	<clipPath
   id="SVGID_102_">
		<use
   id="use501"
   style="overflow:visible"
   x="0"
   y="0"
   width="20"
   height="20"
   xlink:href="#SVGID_101_" />
	</clipPath>
	<g
   clip-path="url(#SVGID_102_)"
   id="g503">
		<defs
   id="defs505">
			<rect
   width="1400"
   height="1529"
   x="-869.99597"
   y="-325.996"
   id="SVGID_103_" />
		</defs>
		<clipPath
   id="SVGID_104_">
			<use
   id="use509"
   style="overflow:visible"
   x="0"
   y="0"
   width="20"
   height="20"
   xlink:href="#SVGID_103_" />
		</clipPath>
		<rect
   width="15.583"
   height="16.964001"
   x="4.3429999"
   y="1.518"
   clip-path="url(#SVGID_104_)"
   id="rect511"
   style="fill:#b0b3b7" />
	</g>
</g>
<g
   id="g513">
	<defs
   id="defs515">
		<path
   d="m 17.809,7.355 c 0.287,0.85 0.434,1.739 0.434,2.645 0,4.543 -3.697,8.24 -8.242,8.24 -4.545,0 -8.242,-3.697 -8.242,-8.24 0,-4.544 3.696,-8.241 8.241,-8.241 0.906,0 1.795,0.146 2.645,0.434 V 0.359 C 11.786,0.123 10.9,0.004 10,0.004 4.488,0.004 0.004,4.488 0.004,10 c 0,5.512 4.484,9.996 9.996,9.996 5.512,0 9.996,-4.484 9.996,-9.996 0,-0.9 -0.119,-1.786 -0.355,-2.645 h -1.832 z"
   id="SVGID_105_" />
	</defs>
	<clipPath
   id="SVGID_106_">
		<use
   id="use519"
   style="overflow:visible"
   x="0"
   y="0"
   width="20"
   height="20"
   xlink:href="#SVGID_105_" />
	</clipPath>
	<g
   clip-path="url(#SVGID_106_)"
   id="g521">
		<defs
   id="defs523">
			<rect
   width="1400"
   height="1529"
   x="-869.99597"
   y="-325.996"
   id="SVGID_107_" />
		</defs>
		<clipPath
   id="SVGID_108_">
			<use
   id="use527"
   style="overflow:visible"
   x="0"
   y="0"
   width="20"
   height="20"
   xlink:href="#SVGID_107_" />
		</clipPath>
		<rect
   width="29.992001"
   height="29.992001"
   x="-4.9959998"
   y="-4.9959998"
   clip-path="url(#SVGID_108_)"
   id="rect529"
   style="fill:#b0b3b7" />
	</g>
</g>
<g
   id="g531">
	<defs
   id="defs533">
		<polygon
   points="17.309,0.769 15.93,0.769 15.93,2.686 14.025,2.686 14.025,4.064 15.93,4.064 15.93,5.98 17.309,5.98 17.309,4.064 19.225,4.064 19.225,2.686 17.309,2.686 "
   id="SVGID_109_" />
	</defs>
	<clipPath
   id="SVGID_110_">
		<use
   id="use537"
   style="overflow:visible"
   x="0"
   y="0"
   width="20"
   height="20"
   xlink:href="#SVGID_109_" />
	</clipPath>
	<g
   clip-path="url(#SVGID_110_)"
   id="g539">
		<defs
   id="defs541">
			<rect
   width="1400"
   height="1529"
   x="-869.99597"
   y="-325.996"
   id="SVGID_111_" />
		</defs>
		<clipPath
   id="SVGID_112_">
			<use
   id="use545"
   style="overflow:visible"
   x="0"
   y="0"
   width="20"
   height="20"
   xlink:href="#SVGID_111_" />
		</clipPath>
		<rect
   width="15.199"
   height="15.211"
   x="9.0249996"
   y="-4.2309999"
   clip-path="url(#SVGID_112_)"
   id="rect547"
   style="fill:#b0b3b7" />
	</g>
</g>


































































</svg>