<?xml version="1.0" encoding="UTF-8" standalone="no"?>
<!-- Created with Inkscape (http://www.inkscape.org/) -->

<svg
   xmlns:dc="http://purl.org/dc/elements/1.1/"
   xmlns:cc="http://creativecommons.org/ns#"
   xmlns:rdf="http://www.w3.org/1999/02/22-rdf-syntax-ns#"
   xmlns:svg="http://www.w3.org/2000/svg"
   xmlns="http://www.w3.org/2000/svg"
   xmlns:xlink="http://www.w3.org/1999/xlink"
   version="1.1"
   width="20"
   height="20"
   viewBox="0 0 20 20"
   id="Layer_1"
   xml:space="preserve"><metadata
   id="metadata2553"><rdf:RDF><cc:Work
       rdf:about=""><dc:format>image/svg+xml</dc:format><dc:type
         rdf:resource="http://purl.org/dc/dcmitype/StillImage" /><dc:title></dc:title></cc:Work></rdf:RDF></metadata><defs
   id="defs2551" />
<style
   type="text/css"
   id="style3" />




















































































<g
   id="g2473">
	<defs
   id="defs2475">
		<rect
   width="17"
   height="17"
   x="1.5"
   y="1.5"
   id="SVGID_317_" />
	</defs>
	<clipPath
   id="SVGID_318_">
		<use
   id="use2479"
   style="overflow:visible"
   x="0"
   y="0"
   width="20"
   height="20"
   xlink:href="#SVGID_317_" />
	</clipPath>
	<g
   clip-path="url(#SVGID_318_)"
   id="g2481">
		<defs
   id="defs2483">
			<rect
   width="1400"
   height="1529"
   x="-535.5"
   y="-889.5"
   id="SVGID_319_" />
		</defs>
		<clipPath
   id="SVGID_320_">
			<use
   id="use2487"
   style="overflow:visible"
   x="0"
   y="0"
   width="20"
   height="20"
   xlink:href="#SVGID_319_" />
		</clipPath>
		<circle
   cx="10"
   cy="10"
   r="7.5"
   clip-path="url(#SVGID_320_)"
   id="circle2489"
   style="fill:none;stroke:#38434b;stroke-miterlimit:10" />
		<polygon
   points="12.772,9.187 11.767,12.128 8.511,12.128 7.506,9.187 10.139,7.369 "
   clip-path="url(#SVGID_320_)"
   id="polygon2491"
   style="fill:none;stroke:#38434b;stroke-miterlimit:10" />
		<polyline
   class="st40"
   points="4.081,5.706 4.978,5.786 5.472,8.425 3.181,9.814 2.556,9.242   "
   id="polyline2493"
   clip-path="url(#SVGID_320_)"
   style="fill:none;stroke:#38434b;stroke-miterlimit:10" />
		<polyline
   class="st40"
   points="12.178,2.836 12.455,3.688 10.233,5.214 8.056,3.688 8.333,2.881   "
   id="polyline2495"
   clip-path="url(#SVGID_320_)"
   style="fill:none;stroke:#38434b;stroke-miterlimit:10" />
		<polyline
   class="st40"
   points="15.92,5.706 15.021,5.786 14.527,8.425 16.819,9.814 17.444,9.233   "
   id="polyline2497"
   clip-path="url(#SVGID_320_)"
   style="fill:none;stroke:#38434b;stroke-miterlimit:10" />
		<polyline
   class="st40"
   points="16.336,13.691 15.939,12.883 13.3,13.366 12.816,16.008 13.584,16.389   "
   id="polyline2499"
   clip-path="url(#SVGID_320_)"
   style="fill:none;stroke:#38434b;stroke-miterlimit:10" />
		<polyline
   class="st40"
   points="3.542,13.691 3.939,12.883 6.578,13.366 7.061,16.008 6.294,16.389   "
   id="polyline2501"
   clip-path="url(#SVGID_320_)"
   style="fill:none;stroke:#38434b;stroke-miterlimit:10" />
		<line
   class="st40"
   x1="7.605"
   y1="9.1780005"
   x2="5.447"
   y2="8.4799995"
   id="line2503"
   clip-path="url(#SVGID_320_)"
   style="fill:none;stroke:#38434b;stroke-miterlimit:10" />
		<line
   class="st40"
   x1="8.5030003"
   y1="12.056"
   x2="6.5110002"
   y2="13.478"
   id="line2505"
   clip-path="url(#SVGID_320_)"
   style="fill:none;stroke:#38434b;stroke-miterlimit:10" />
		<line
   class="st40"
   x1="11.764"
   y1="12.05"
   x2="13.363"
   y2="13.425"
   id="line2507"
   clip-path="url(#SVGID_320_)"
   style="fill:none;stroke:#38434b;stroke-miterlimit:10" />
		<line
   class="st40"
   x1="12.809"
   y1="9.1780005"
   x2="14.569"
   y2="8.4250002"
   id="line2509"
   clip-path="url(#SVGID_320_)"
   style="fill:none;stroke:#38434b;stroke-miterlimit:10" />
	</g>
</g>

</svg>