<?xml version="1.0" encoding="UTF-8" standalone="no"?>
<svg
   xmlns:dc="http://purl.org/dc/elements/1.1/"
   xmlns:cc="http://creativecommons.org/ns#"
   xmlns:rdf="http://www.w3.org/1999/02/22-rdf-syntax-ns#"
   xmlns:svg="http://www.w3.org/2000/svg"
   xmlns="http://www.w3.org/2000/svg"
   version="1.1"
   id="svg4229"
   viewBox="0 0 60.005404 58.36061"
   height="16.470661mm"
   width="16.934858mm">
  <defs
     id="defs4231" />
  <metadata
     id="metadata4234">
    <rdf:RDF>
      <cc:Work
         rdf:about="">
        <dc:format>image/svg+xml</dc:format>
        <dc:type
           rdf:resource="http://purl.org/dc/dcmitype/StillImage" />
        <dc:title></dc:title>
      </cc:Work>
    </rdf:RDF>
  </metadata>
  <g
     transform="translate(-578.56873,-394.61047)"
     id="layer1">
    <g
       transform="translate(579.56873,391.97108)"
       id="Letter"
       style="fill:none;stroke:#ffffff;stroke-width:2">
      <path
         id="Combined-Shape"
         d="M 39.702862,15 2.4030568,15 C 1.1006747,15 0,16.209928 0,17.638847 l 0,5.573331 0,0 0,34.148975 C 0,58.79281 1.1006747,60 2.4030568,60 l 53.1835072,0 c 1.299892,0 2.400567,-1.20719 2.400567,-2.638847 l 0,-34.148975 c 0,0 0,-1.39574 0,-4.103351 l 0.005,-0.333962 c 0.02241,-0.862279 0.0498,-2.165278 -0.727142,-3.043981 C 56.971123,15.396922 56.438218,15 55.586564,15 l -7.261828,0"
         style="fill:none;stroke-linecap:round;stroke-linejoin:round" />
      <path
         style="fill:none"
         id="path79"
         d="m 0,21 c 0.28911,0.245494 0,5.570012 5.0217936,10.720729 5.0217934,5.150717 10.1716804,8.72758 14.7466144,12.945984 C 22.330495,47.045108 25.517973,50 28.912234,50 c 3.469913,0 6.652348,-2.954892 9.214434,-5.330502 4.834174,-4.458795 9.744,-8.697574 15.627218,-13.69666 C 58,26.570012 57.581534,21.448281 58,21" />
      <g
         transform="matrix(0,1,-1,0,45,0)"
         id="Arrow-Reply"
         style="fill:none;stroke-linecap:round;stroke-linejoin:round">
        <path
           style="fill:none"
           transform="matrix(-0.70710678,-0.70710678,-0.70710678,0.70710678,22.882082,9.4780686)"
           id="Line"
           d="m 9.2356349,17.963355 0,-15.7999996" />
        <path
           style="fill:none"
           transform="matrix(-0.70710678,-0.70710678,-0.70710678,0.70710678,43.407746,17.980077)"
           id="path83"
           d="m 13.951314,10.662058 15.809986,0" />
      </g>
    </g>
  </g>
</svg>
