<?xml version="1.0" encoding="UTF-8" standalone="no"?>
<!-- Created with Inkscape (http://www.inkscape.org/) -->

<svg
   xmlns:dc="http://purl.org/dc/elements/1.1/"
   xmlns:cc="http://creativecommons.org/ns#"
   xmlns:rdf="http://www.w3.org/1999/02/22-rdf-syntax-ns#"
   xmlns:svg="http://www.w3.org/2000/svg"
   xmlns="http://www.w3.org/2000/svg"
   version="1.1"
   width="10.9375"
   height="8.25"
   id="svg3437">
  <defs
     id="defs3439" />
  <metadata
     id="metadata3442">
    <rdf:RDF>
      <cc:Work
         rdf:about="">
        <dc:format>image/svg+xml</dc:format>
        <dc:type
           rdf:resource="http://purl.org/dc/dcmitype/StillImage" />
        <dc:title></dc:title>
      </cc:Work>
    </rdf:RDF>
  </metadata>
  <g
     transform="translate(-383.73954,-455.03058)"
     id="layer1">
    <polyline
       id="Path-79-Copy-2"
       transform="matrix(-1,0,0,1,398.95829,447.71808)"
       points="5 8 10.9269938 14.1500001 14.5266291 10.5490373"
       style="fill:none;stroke:#ffffff;stroke-width:2" />
  </g>
</svg>
