<?xml version="1.0" encoding="utf-8"?>
<!-- Generator: Adobe Illustrator 16.0.0, SVG Export Plug-In . SVG Version: 6.00 Build 0)  -->
<!DOCTYPE svg PUBLIC "-//W3C//DTD SVG 1.1//EN" "http://www.w3.org/Graphics/SVG/1.1/DTD/svg11.dtd">
<svg version="1.1" id="Layer_1" xmlns="http://www.w3.org/2000/svg" xmlns:xlink="http://www.w3.org/1999/xlink" x="0px" y="0px"
	 width="20px" height="20px" viewBox="0 0 20 20" style="enable-background:new 0 0 20 20;" xml:space="preserve">
<style type="text/css">
<![CDATA[
	.st0{fill:none;stroke:#B0B3B7;stroke-miterlimit:10;}
	.st1{clip-path:url(#SVGID_2_);}
	.st2{clip-path:url(#SVGID_6_);}
	.st3{clip-path:url(#SVGID_8_);}
	.st4{clip-path:url(#SVGID_10_);fill:#FFFFFF;}
	.st5{clip-path:url(#SVGID_4_);fill:#FFFFFF;}
	.st6{clip-path:url(#SVGID_12_);}
	.st7{clip-path:url(#SVGID_14_);}
	.st8{clip-path:url(#SVGID_16_);fill:#FFFFFF;}
]]>
</style>
<g>
	<defs>
		<path id="SVGID_1_" d="M-14.809-157.328c0-1.653,1.345-2.994,3.006-2.994h609.989c1.66,0,3.006,1.344,3.006,2.994v135.006h-616
			V-157.328z"/>
	</defs>
	<clipPath id="SVGID_2_">
		<use xlink:href="#SVGID_1_"  style="overflow:visible;"/>
	</clipPath>
	<g class="st1">
		<defs>
			<rect id="SVGID_3_" x="-244.809" y="-260.322" width="1400" height="1529"/>
		</defs>
		<clipPath id="SVGID_4_">
			<use xlink:href="#SVGID_3_"  style="overflow:visible;"/>
		</clipPath>
		<rect x="-19.809" y="-165.322" class="st5" width="626" height="148"/>
	</g>
</g>
<g>
	<defs>
		<path id="SVGID_5_" d="M4.691,85.68v27.996c0,1.936,1.57,3.502,3.507,3.502h32.993h0.5v-0.5v-34v-0.5h-0.5H8.198
			C6.261,82.178,4.691,83.746,4.691,85.68z M5.691,85.68c0-1.382,1.122-2.502,2.507-2.502h32.993l-0.5-0.5v34l0.5-0.5H8.198
			c-1.385,0-2.507-1.12-2.507-2.502V85.68z M-15.309,62.178h77v75h-77V62.178z"/>
	</defs>
	<clipPath id="SVGID_6_">
		<use xlink:href="#SVGID_5_"  style="overflow:visible;"/>
	</clipPath>
	<g class="st2">
		<defs>
			<path id="SVGID_7_" d="M5.191,85.68c0-1.658,1.346-3.002,3.007-3.002h32.993v34H8.198c-1.661,0-3.007-1.343-3.007-3.002V85.68z"
				/>
		</defs>
		<clipPath id="SVGID_8_">
			<use xlink:href="#SVGID_7_"  style="overflow:visible;"/>
		</clipPath>
		<g class="st3">
			<defs>
				<rect id="SVGID_9_" x="-244.809" y="-260.322" width="1400" height="1529"/>
			</defs>
			<clipPath id="SVGID_10_">
				<use xlink:href="#SVGID_9_"  style="overflow:visible;"/>
			</clipPath>
			<path class="st4" d="M5.191,85.68c0-1.658,1.346-3.002,3.007-3.002h32.993v34H8.198c-1.661,0-3.007-1.343-3.007-3.002V85.68z"/>
		</g>
	</g>
</g>
<g>
	<defs>
		<path id="SVGID_11_" d="M4.691-78.32v27.996c0,1.935,1.57,3.502,3.507,3.502h32.993h0.5v-0.5v-34v-0.5h-0.5H8.198
			C6.261-81.822,4.691-80.254,4.691-78.32z M5.691-78.32c0-1.382,1.122-2.502,2.507-2.502h32.993l-0.5-0.5v34l0.5-0.5H8.198
			c-1.385,0-2.507-1.12-2.507-2.502V-78.32z M-15.309-101.822h77v75h-77V-101.822z"/>
	</defs>
	<clipPath id="SVGID_12_">
		<use xlink:href="#SVGID_11_"  style="overflow:visible;"/>
	</clipPath>
	<g class="st6">
		<defs>
			<path id="SVGID_13_" d="M5.191-78.32c0-1.658,1.346-3.002,3.007-3.002h32.993v34H8.198c-1.661,0-3.007-1.343-3.007-3.002V-78.32z
				"/>
		</defs>
		<clipPath id="SVGID_14_">
			<use xlink:href="#SVGID_13_"  style="overflow:visible;"/>
		</clipPath>
		<g class="st7">
			<defs>
				<rect id="SVGID_15_" x="-244.809" y="-260.322" width="1400" height="1529"/>
			</defs>
			<clipPath id="SVGID_16_">
				<use xlink:href="#SVGID_15_"  style="overflow:visible;"/>
			</clipPath>
			<path class="st8" d="M5.191-78.32c0-1.658,1.346-3.002,3.007-3.002h32.993v34H8.198c-1.661,0-3.007-1.343-3.007-3.002V-78.32z"/>
		</g>
	</g>
</g>
<text transform="matrix(1 0 0 1 437.5938 190.2676)"><tspan x="0" y="0" style="fill:#48555D; font-family:'Montserrat-Light'; font-size:14;">16:1</tspan><tspan x="25.619" y="0" style="fill:#48555D; font-family:'Montserrat-Light'; font-size:14;">0</tspan></text>
<text transform="matrix(1 0 0 1 437.5938 15.2676)"><tspan x="0" y="0" style="fill:#48555D; font-family:'Montserrat-Light'; font-size:14;">2</tspan><tspan x="7.477" y="0" style="fill:#48555D; font-family:'Montserrat-Light'; font-size:14;">0</tspan></text>
<path class="st0" d="M14.481,3.014l1.18-1.132h3.305c0,0,0.377,4.628-3.967,7.488"/>
<path class="st0" d="M5.518,3.014L4.339,1.882H1.034c0,0-0.378,4.628,3.966,7.488"/>
<polygon class="st0" points="10.008,7.408 9.195,7.836 9.351,6.932 8.693,6.291 9.602,6.159 10.008,5.336 10.413,6.159 
	11.321,6.291 10.665,6.932 10.819,7.836 "/>
<rect x="4.825" y="16.391" class="st0" width="10.364" height="3.109"/>
<polygon class="st0" points="7.589,14.318 12.426,14.318 13.116,16.391 6.898,16.391 "/>
<path class="st0" d="M5.761,0.5h8.494l0.805,9.718c0.076,0.929-0.594,1.864-1.496,2.09l-3.556,0.886l-3.556-0.886
	c-0.903-0.226-1.573-1.16-1.496-2.09L5.761,0.5z"/>
</svg>
