<?xml version="1.0" encoding="utf-8"?>
<!-- Generator: Adobe Illustrator 16.0.0, SVG Export Plug-In . SVG Version: 6.00 Build 0)  -->
<!DOCTYPE svg PUBLIC "-//W3C//DTD SVG 1.1//EN" "http://www.w3.org/Graphics/SVG/1.1/DTD/svg11.dtd">
<svg version="1.1" id="Layer_1" xmlns="http://www.w3.org/2000/svg" xmlns:xlink="http://www.w3.org/1999/xlink" x="0px" y="0px"
	 width="20px" height="20px" viewBox="0 0 20 20" style="enable-background:new 0 0 20 20;" xml:space="preserve">
<style type="text/css">
<![CDATA[
	.st0{clip-path:url(#SVGID_4_);fill:#00B3BE;}
	.st1{fill:none;stroke:#FFFFFF;stroke-miterlimit:10;}
	.st2{fill:none;stroke:#FFFFFF;stroke-linecap:round;stroke-miterlimit:10;}
	.st3{clip-path:url(#SVGID_2_);}
	.st4{clip-path:url(#SVGID_6_);}
	.st5{clip-path:url(#SVGID_8_);fill:#7CB842;}
	.st6{fill:none;stroke:#979797;stroke-miterlimit:10;}
]]>
</style>
<g>
	<defs>
		<circle id="SVGID_1_" cx="190.5" cy="-164.5" r="12.5"/>
	</defs>
	<clipPath id="SVGID_2_">
		<use xlink:href="#SVGID_1_"  style="overflow:visible;"/>
	</clipPath>
	<g class="st3">
		<defs>
			<rect id="SVGID_3_" x="-690" y="-747" width="1400" height="1529"/>
		</defs>
		<clipPath id="SVGID_4_">
			<use xlink:href="#SVGID_3_"  style="overflow:visible;"/>
		</clipPath>
		<rect x="173" y="-182" class="st0" width="35" height="35"/>
	</g>
</g>
<path class="st1" d="M183-167.942v8.556c0,0.359,0.28,0.661,0.611,0.661h13.539c0.33,0,0.61-0.302,0.61-0.661v-8.556
	c0,0,0-0.35,0-1.028l0.002-0.083c0.005-0.216,0.013-0.542-0.186-0.763c-0.075-0.083-0.21-0.183-0.427-0.183h-13.539
	c-0.331,0-0.611,0.303-0.611,0.661V-167.942z"/>
<path class="st1" d="M183-169.031c0.073,0.063,0,1.41,1.278,2.713s2.589,2.208,3.754,3.275c0.652,0.602,1.464,1.35,2.327,1.35
	c0.884,0,1.693-0.748,2.346-1.349c1.23-1.128,2.48-2.201,3.979-3.465c1.081-1.114,0.975-2.41,1.081-2.523"/>
<path class="st1" d="M2.618,6.42v8.556c0,0.357,0.28,0.66,0.611,0.66h13.539c0.33,0,0.611-0.303,0.611-0.66V6.42c0,0,0-0.35,0-1.028
	l0.002-0.084c0.004-0.216,0.012-0.542-0.186-0.762c-0.076-0.084-0.211-0.184-0.428-0.184H3.229c-0.331,0-0.611,0.303-0.611,0.661
	V6.42z"/>
<path class="st1" d="M2.618,5.332c0.073,0.063,0,1.41,1.278,2.713s2.589,2.208,3.754,3.276c0.652,0.602,1.464,1.35,2.327,1.35
	c0.884,0,1.693-0.748,2.345-1.35c1.23-1.127,2.48-2.201,3.979-3.465c1.082-1.113,0.975-2.41,1.082-2.523"/>
<path class="st6" d="M191-122"/>
<g>
	<defs>
		<circle id="SVGID_5_" cx="190.5" cy="-118.5" r="12.5"/>
	</defs>
	<clipPath id="SVGID_6_">
		<use xlink:href="#SVGID_5_"  style="overflow:visible;"/>
	</clipPath>
	<g class="st4">
		<defs>
			<rect id="SVGID_7_" x="-690" y="-747" width="1400" height="1529"/>
		</defs>
		<clipPath id="SVGID_8_">
			<use xlink:href="#SVGID_7_"  style="overflow:visible;"/>
		</clipPath>
		<rect x="173" y="-136" class="st5" width="35" height="35"/>
	</g>
</g>
<path class="st1" d="M183.611-121c-0.331,0-0.611,0.249-0.611,0.543v1.148v7.035c0,0.295,0.28,0.543,0.611,0.543h13.539
	c0.33,0,0.61-0.249,0.61-0.543v-7.035c0,0,0-0.288,0-0.845l0.002-0.069c0.005-0.178,0.013-0.446-0.186-0.627
	c-0.075-0.068-0.21-0.15-0.427-0.15"/>
<path class="st2" d="M183-120.663c0.073-0.053,0-1.217,1.278-2.343s2.589-1.907,3.754-2.829c0.652-0.52,1.464-1.166,2.327-1.166
	c0.884,0,1.693,0.646,2.346,1.165c1.23,0.974,2.48,1.9,3.979,2.993c1.081,0.962,0.975,2.082,1.081,2.179"/>
<path class="st1" d="M183-121c0.073,0.042,0,0.96,1.278,1.849c1.278,0.888,2.589,1.504,3.754,2.232
	c0.652,0.41,1.464,0.919,2.327,0.919c0.884,0,1.693-0.509,2.346-0.919c1.23-0.769,2.48-1.5,3.979-2.361
	c1.081-0.759,0.975-1.643,1.081-1.72"/>
<path class="st6" d="M37.629-74.414"/>
<path class="st1" d="M30.24-73.414c-0.332,0-0.611,0.249-0.611,0.544v1.147v7.035c0,0.295,0.279,0.543,0.611,0.543h13.538
	c0.33,0,0.611-0.248,0.611-0.543v-7.035c0,0,0-0.287,0-0.845l0.002-0.069c0.004-0.178,0.012-0.445-0.186-0.627
	c-0.076-0.068-0.211-0.15-0.428-0.15"/>
<path class="st2" d="M29.629-73.076c0.072-0.054,0-1.218,1.277-2.343c1.279-1.126,2.59-1.907,3.754-2.829
	c0.652-0.521,1.465-1.166,2.328-1.166c0.883,0,1.692,0.646,2.345,1.165c1.23,0.975,2.48,1.9,3.979,2.993
	c1.082,0.962,0.975,2.081,1.082,2.18"/>
<path class="st1" d="M29.629-73.414c0.072,0.042,0,0.96,1.277,1.849c1.279,0.888,2.59,1.505,3.754,2.231
	c0.652,0.41,1.465,0.92,2.328,0.92c0.883,0,1.692-0.51,2.345-0.919c1.23-0.769,2.48-1.5,3.979-2.361
	c1.082-0.76,0.975-1.643,1.082-1.72"/>
</svg>
