<?xml version="1.0" encoding="UTF-8" standalone="no"?>
<!-- Created with Inkscape (http://www.inkscape.org/) -->

<svg
   xmlns:dc="http://purl.org/dc/elements/1.1/"
   xmlns:cc="http://creativecommons.org/ns#"
   xmlns:rdf="http://www.w3.org/1999/02/22-rdf-syntax-ns#"
   xmlns:svg="http://www.w3.org/2000/svg"
   xmlns="http://www.w3.org/2000/svg"
   xmlns:sodipodi="http://sodipodi.sourceforge.net/DTD/sodipodi-0.dtd"
   xmlns:inkscape="http://www.inkscape.org/namespaces/inkscape"
   width="5.2916665mm"
   height="6.9524684mm"
   viewBox="0 0 5.2916665 6.9524684"
   version="1.1"
   id="svg1800"
   inkscape:version="0.92.2 (5c3e80d, 2017-08-06)"
   sodipodi:docname="export-wv.svg">
  <defs
     id="defs1794" />
  <sodipodi:namedview
     id="base"
     pagecolor="#ffffff"
     bordercolor="#666666"
     borderopacity="1.0"
     inkscape:pageopacity="0.0"
     inkscape:pageshadow="2"
     inkscape:zoom="1.9446746"
     inkscape:cx="159.99999"
     inkscape:cy="-99.718621"
     inkscape:document-units="mm"
     inkscape:current-layer="layer1"
     showgrid="false"
     fit-margin-top="0"
     fit-margin-left="0"
     fit-margin-right="0"
     fit-margin-bottom="0"
     inkscape:window-width="1920"
     inkscape:window-height="1138"
     inkscape:window-x="-8"
     inkscape:window-y="-8"
     inkscape:window-maximized="1" />
  <metadata
     id="metadata1797">
    <rdf:RDF>
      <cc:Work
         rdf:about="">
        <dc:format>image/svg+xml</dc:format>
        <dc:type
           rdf:resource="http://purl.org/dc/dcmitype/StillImage" />
        <dc:title></dc:title>
      </cc:Work>
    </rdf:RDF>
  </metadata>
  <g
     inkscape:label="Layer 1"
     inkscape:groupmode="layer"
     id="layer1"
     transform="translate(-162.15179,-34.988051)">
    <g
       style="fill:none;stroke:#37424a;stroke-linecap:round;stroke-linejoin:round"
       id="Cal-Share"
       transform="matrix(0,-0.26458333,0.26458333,0,162.28408,41.808228)">
      <path
         inkscape:connector-curvature="0"
         d="M 0,6.2341183 V 0 h 16 c 1.104569,0 2,0.8954305 2,2 v 15 c 0,1.104569 -0.895431,2 -2,2 H 0 v -6.362463"
         id="Rectangle"
         transform="matrix(-1,0,0,1,18,0)"
         style="fill:none" />
      <g
         id="Group"
         transform="translate(9.772727,4.386364)"
         style="fill:none">
        <path
           inkscape:connector-curvature="0"
           d="M 0,4.7727273 H 14.795455"
           id="Line"
           style="fill:none" />
        <g
           id="Group-16"
           transform="rotate(45,5.9759349,14.48122)"
           style="fill:none">
          <polyline
             id="polyline141"
             points="5.84859307 6.60595238 5.84859307 0.878679656 0.121320344 0.878679656"
             style="fill:none" />
        </g>
      </g>
    </g>
  </g>
</svg>
