<?xml version="1.0" encoding="utf-8"?>
<!-- Generator: Adobe Illustrator 16.0.0, SVG Export Plug-In . SVG Version: 6.00 Build 0)  -->
<!DOCTYPE svg PUBLIC "-//W3C//DTD SVG 1.1//EN" "http://www.w3.org/Graphics/SVG/1.1/DTD/svg11.dtd">
<svg version="1.1" id="Layer_1" xmlns="http://www.w3.org/2000/svg" xmlns:xlink="http://www.w3.org/1999/xlink" x="0px" y="0px"
	 width="20px" height="20px" viewBox="0 0 20 20" style="enable-background:new 0 0 20 20;" xml:space="preserve">
<style type="text/css">
<![CDATA[
	.st0{fill:none;stroke:#FFFFFF;stroke-miterlimit:10;}
	.st1{fill:none;stroke:#FFFFFF;stroke-linecap:square;stroke-miterlimit:10;}
	.st2{clip-path:url(#SVGID_2_);}
	.st3{clip-path:url(#SVGID_4_);}
	.st4{clip-path:url(#SVGID_8_);}
	.st5{opacity:0;clip-path:url(#SVGID_6_);fill:#3C5294;}
	.st6{clip-path:url(#SVGID_10_);fill:none;stroke:#FFFFFF;stroke-width:2;stroke-miterlimit:10;}
]]>
</style>
<text transform="matrix(1 0 0 1 -16.8872 55.7139)" style="fill:#FFFFFF; font-family:'Montserrat-Light'; font-size:14;">Heslo</text>
<line class="st1" x1="-48.596" y1="24.88" x2="211.404" y2="24.88"/>
<path class="st0" d="M15.996,10.331v5.941c0,0.275-0.096,0.51-0.291,0.703c-0.193,0.191-0.43,0.287-0.707,0.287H5.003
	c-0.277,0-0.514-0.096-0.708-0.287c-0.194-0.193-0.292-0.428-0.292-0.703v-5.941c0-0.275,0.098-0.51,0.292-0.701
	C4.49,9.436,4.726,9.34,5.003,9.34h0.333V7.36c0-1.266,0.458-2.353,1.374-3.26C7.626,3.192,8.723,2.738,10,2.738
	c1.278,0,2.374,0.454,3.292,1.362c0.916,0.907,1.373,1.994,1.373,3.26v1.98h0.334c0.277,0,0.514,0.096,0.707,0.289
	C15.9,9.821,15.996,10.055,15.996,10.331z M7.335,9.34h5.331V7.36c0-0.729-0.262-1.352-0.781-1.867
	C11.363,4.976,10.736,4.718,10,4.718c-0.734,0-1.363,0.258-1.884,0.774C7.595,6.008,7.335,6.63,7.335,7.36V9.34z"/>
<path class="st0" d="M87.531-4.666c0,1.002-0.355,1.858-1.064,2.567C85.756-1.39,84.9-1.035,83.897-1.035
	c-1.004,0-1.859-0.354-2.57-1.063c-0.709-0.709-1.064-1.565-1.064-2.567s0.355-1.858,1.064-2.567
	c0.711-0.709,1.566-1.064,2.57-1.064c1.003,0,1.858,0.354,2.569,1.064C87.176-6.524,87.531-5.668,87.531-4.666z M90.561,3.779
	c0,0.756-0.23,1.354-0.691,1.791c-0.461,0.438-1.072,0.658-1.836,0.658h-8.272c-0.764,0-1.375-0.22-1.836-0.658
	c-0.461-0.438-0.691-1.035-0.691-1.791c0-0.334,0.012-0.66,0.033-0.979c0.022-0.319,0.066-0.663,0.133-1.031
	c0.066-0.369,0.15-0.711,0.251-1.026c0.101-0.314,0.236-0.623,0.407-0.922c0.17-0.299,0.365-0.555,0.586-0.766
	c0.222-0.211,0.491-0.379,0.811-0.506c0.318-0.126,0.67-0.189,1.055-0.189c0.057,0,0.189,0.068,0.397,0.203
	c0.208,0.136,0.443,0.287,0.705,0.454c0.263,0.167,0.603,0.318,1.022,0.454c0.42,0.135,0.841,0.203,1.264,0.203
	s0.844-0.068,1.263-0.203c0.42-0.136,0.76-0.287,1.021-0.454s0.498-0.318,0.705-0.454c0.209-0.135,0.342-0.203,0.398-0.203
	c0.385,0,0.736,0.063,1.055,0.189c0.318,0.126,0.59,0.295,0.811,0.506c0.221,0.211,0.416,0.467,0.586,0.766
	c0.17,0.299,0.307,0.607,0.408,0.922c0.1,0.315,0.184,0.657,0.25,1.026c0.066,0.368,0.109,0.712,0.133,1.031
	C90.549,3.119,90.561,3.445,90.561,3.779z"/>
<line class="st1" x1="-48.596" y1="66.88" x2="211.404" y2="66.88"/>
<text transform="matrix(1 0 0 1 9.564 100.3799)" style="fill:#FFFFFF; font-family:'Montserrat-Light'; font-size:14;">Zapamatat si prihlasenie</text>
<g>
	<defs>
		<path id="SVGID_1_" d="M-15.26,88.88h7.328c1.563,0,2.836,1.271,2.836,2.835v7.33c0,1.563-1.271,2.835-2.836,2.835h-7.328
			c-1.563,0-2.836-1.271-2.836-2.835v-7.33C-18.096,90.152-16.825,88.88-15.26,88.88z M-15.26,87.88
			c-2.117,0-3.836,1.721-3.836,3.835v7.33c0,2.116,1.721,3.835,3.836,3.835h7.328c2.117,0,3.836-1.721,3.836-3.835v-7.33
			c0-2.116-1.721-3.835-3.836-3.835H-15.26z M-39.096,67.88h55v55h-55V67.88z"/>
	</defs>
	<clipPath id="SVGID_2_">
		<use xlink:href="#SVGID_1_"  style="overflow:visible;"/>
	</clipPath>
	<g class="st2">
		<defs>
			<path id="SVGID_3_" d="M-15.26,88.38c-1.843,0-3.336,1.498-3.336,3.335v7.33c0,1.842,1.498,3.335,3.336,3.335h7.328
				c1.843,0,3.336-1.498,3.336-3.335v-7.33c0-1.842-1.498-3.335-3.336-3.335H-15.26z"/>
		</defs>
		<clipPath id="SVGID_4_">
			<use xlink:href="#SVGID_3_"  style="overflow:visible;"/>
		</clipPath>
		<g class="st3">
			<defs>
				<rect id="SVGID_5_" x="-652.596" y="-183.62" width="1440" height="1024"/>
			</defs>
			<clipPath id="SVGID_6_">
				<use xlink:href="#SVGID_5_"  style="overflow:visible;"/>
			</clipPath>
			<path class="st5" d="M-15.26,88.38c-1.843,0-3.336,1.498-3.336,3.335v7.33c0,1.842,1.498,3.335,3.336,3.335h7.328
				c1.843,0,3.336-1.498,3.336-3.335v-7.33c0-1.842-1.498-3.335-3.336-3.335H-15.26z"/>
		</g>
	</g>
</g>
<g>
	<defs>
		<path id="SVGID_7_" d="M-15.26,88.38c-1.843,0-3.336,1.498-3.336,3.335v7.33c0,1.842,1.498,3.335,3.336,3.335h7.328
			c1.843,0,3.336-1.498,3.336-3.335v-7.33c0-1.842-1.498-3.335-3.336-3.335H-15.26z"/>
	</defs>
	<clipPath id="SVGID_8_">
		<use xlink:href="#SVGID_7_"  style="overflow:visible;"/>
	</clipPath>
	<g class="st4">
		<defs>
			<rect id="SVGID_9_" x="-652.596" y="-183.62" width="1440" height="1024"/>
		</defs>
		<clipPath id="SVGID_10_">
			<use xlink:href="#SVGID_9_"  style="overflow:visible;"/>
		</clipPath>
		<path class="st6" d="M-15.26,88.38c-1.843,0-3.336,1.498-3.336,3.335v7.33c0,1.842,1.498,3.335,3.336,3.335h7.328
			c1.843,0,3.336-1.498,3.336-3.335v-7.33c0-1.842-1.498-3.335-3.336-3.335H-15.26z"/>
	</g>
</g>
</svg>
