<?xml version="1.0" encoding="UTF-8" standalone="no"?>
<!-- Created with Inkscape (http://www.inkscape.org/) -->

<svg
   xmlns:dc="http://purl.org/dc/elements/1.1/"
   xmlns:cc="http://creativecommons.org/ns#"
   xmlns:rdf="http://www.w3.org/1999/02/22-rdf-syntax-ns#"
   xmlns:svg="http://www.w3.org/2000/svg"
   xmlns="http://www.w3.org/2000/svg"
   version="1.1"
   width="20"
   height="20"
   viewBox="0 0 20 20"
   id="Layer_1"
   xml:space="preserve"><metadata
   id="metadata1945"><rdf:RDF><cc:Work
       rdf:about=""><dc:format>image/svg+xml</dc:format><dc:type
         rdf:resource="http://purl.org/dc/dcmitype/StillImage" /><dc:title></dc:title></cc:Work></rdf:RDF></metadata><defs
   id="defs1943" />
<style
   type="text/css"
   id="style3" />












































































<path
   d="M 434.494,141.502"
   id="path1787"
   style="fill:none;stroke:#979797;stroke-miterlimit:10" />
<path
   d="m 15.334,7.334 c 0,0.757 -0.115,1.378 -0.344,1.864 l -3.793,8.063 C 11.086,17.49 10.921,17.669 10.702,17.802 10.484,17.935 10.25,18 10,18 9.75,18 9.516,17.935 9.297,17.803 9.078,17.67 8.917,17.49 8.813,17.262 L 5.01,9.198 C 4.781,8.712 4.667,8.091 4.667,7.334 4.667,5.861 5.188,4.605 6.23,3.563 7.271,2.521 8.528,2 10,2 c 1.473,0 2.729,0.521 3.772,1.563 1.041,1.041 1.562,2.298 1.562,3.771 z m -2.668,0 c 0,-0.736 -0.26,-1.365 -0.781,-1.886 C 11.365,4.928 10.736,4.667 10,4.667 9.265,4.667 8.636,4.928 8.115,5.448 7.593,5.969 7.333,6.598 7.333,7.334 c 0,0.735 0.26,1.364 0.781,1.885 C 8.635,9.74 9.264,10 10,10 c 0.736,0 1.366,-0.26 1.885,-0.781 0.521,-0.521 0.781,-1.15 0.781,-1.885 z"
   id="path1789"
   style="fill:none;stroke:#b0b3b7;stroke-miterlimit:10" />









</svg>