<?xml version="1.0" encoding="UTF-8" standalone="no"?>
<!-- Created with Inkscape (http://www.inkscape.org/) -->

<svg
   xmlns:dc="http://purl.org/dc/elements/1.1/"
   xmlns:cc="http://creativecommons.org/ns#"
   xmlns:rdf="http://www.w3.org/1999/02/22-rdf-syntax-ns#"
   xmlns:svg="http://www.w3.org/2000/svg"
   xmlns="http://www.w3.org/2000/svg"
   xmlns:xlink="http://www.w3.org/1999/xlink"
   version="1.1"
   width="26"
   height="26"
   viewBox="0 0 26 26"
   id="Layer_1"
   xml:space="preserve"><metadata
   id="metadata4923"><rdf:RDF><cc:Work
       rdf:about=""><dc:format>image/svg+xml</dc:format><dc:type
         rdf:resource="http://purl.org/dc/dcmitype/StillImage" /><dc:title></dc:title></cc:Work></rdf:RDF></metadata><defs
   id="defs4921" />
<style
   type="text/css"
   id="style3" />




























































































































<g
   id="g4221">
	<defs
   id="defs4223">
		<rect
   width="21"
   height="21"
   x="2.5"
   y="2.5"
   id="SVGID_925_" />
	</defs>
	<clipPath
   id="SVGID_926_">
		<use
   id="use4227"
   style="overflow:visible"
   x="0"
   y="0"
   width="26"
   height="26"
   xlink:href="#SVGID_925_" />
	</clipPath>
	<polyline
   class="st100"
   points="3.5,6.922 4.677,8.098 7.274,5.5  "
   id="polyline4229"
   clip-path="url(#SVGID_926_)"
   style="fill:none;stroke:#00b3be;stroke-linecap:square;stroke-miterlimit:10" />
	<polyline
   class="st100"
   points="3.5,13.922 4.677,15.098 7.274,12.5  "
   id="polyline4231"
   clip-path="url(#SVGID_926_)"
   style="fill:none;stroke:#00b3be;stroke-linecap:square;stroke-miterlimit:10" />
	<line
   class="st100"
   x1="3.5"
   y1="22.098"
   x2="6.098"
   y2="19.5"
   id="line4233"
   clip-path="url(#SVGID_926_)"
   style="fill:none;stroke:#00b3be;stroke-linecap:square;stroke-miterlimit:10" />
	<line
   class="st100"
   x1="6.098"
   y1="22.098"
   x2="3.5"
   y2="19.5"
   id="line4235"
   clip-path="url(#SVGID_926_)"
   style="fill:none;stroke:#00b3be;stroke-linecap:square;stroke-miterlimit:10" />
</g>
<g
   id="g4237">
	<defs
   id="defs4239">
		<circle
   cx="11.5"
   cy="6.5"
   r="2"
   id="SVGID_927_" />
	</defs>
	<clipPath
   id="SVGID_928_">
		<use
   id="use4243"
   style="overflow:visible"
   x="0"
   y="0"
   width="26"
   height="26"
   xlink:href="#SVGID_927_" />
	</clipPath>
	<g
   clip-path="url(#SVGID_928_)"
   id="g4245">
		<defs
   id="defs4247">
			<rect
   width="21"
   height="21"
   x="2.5"
   y="2.5"
   id="SVGID_929_" />
		</defs>
		<clipPath
   id="SVGID_930_">
			<use
   id="use4251"
   style="overflow:visible"
   x="0"
   y="0"
   width="26"
   height="26"
   xlink:href="#SVGID_929_" />
		</clipPath>
		<rect
   width="14"
   height="14"
   x="4.5"
   y="-0.5"
   clip-path="url(#SVGID_930_)"
   id="rect4253"
   style="fill:#ffffff" />
	</g>
</g>
<g
   id="g4255">
	<defs
   id="defs4257">
		<rect
   width="21"
   height="21"
   x="2.5"
   y="2.5"
   id="SVGID_931_" />
	</defs>
	<clipPath
   id="SVGID_932_">
		<use
   id="use4261"
   style="overflow:visible"
   x="0"
   y="0"
   width="26"
   height="26"
   xlink:href="#SVGID_931_" />
	</clipPath>
	<circle
   cx="11.5"
   cy="6.5"
   r="2"
   clip-path="url(#SVGID_932_)"
   id="circle4263"
   style="fill:none;stroke:#38434b;stroke-miterlimit:10" />
</g>

<g
   id="g4283">
	<defs
   id="defs4285">
		<rect
   width="21"
   height="21"
   x="2.5"
   y="2.5"
   id="SVGID_937_" />
	</defs>
	<clipPath
   id="SVGID_938_">
		<use
   id="use4289"
   style="overflow:visible"
   x="0"
   y="0"
   width="26"
   height="26"
   xlink:href="#SVGID_937_" />
	</clipPath>
	<circle
   cx="11.5"
   cy="13.5"
   r="2"
   clip-path="url(#SVGID_938_)"
   id="circle4291"
   style="fill:none;stroke:#38434b;stroke-miterlimit:10" />
</g>

<g
   id="g4311">
	<defs
   id="defs4313">
		<rect
   width="21"
   height="21"
   x="2.5"
   y="2.5"
   id="SVGID_943_" />
	</defs>
	<clipPath
   id="SVGID_944_">
		<use
   id="use4317"
   style="overflow:visible"
   x="0"
   y="0"
   width="26"
   height="26"
   xlink:href="#SVGID_943_" />
	</clipPath>
	<circle
   cx="11.5"
   cy="20.5"
   r="2"
   clip-path="url(#SVGID_944_)"
   id="circle4319"
   style="fill:none;stroke:#38434b;stroke-miterlimit:10" />
	<line
   class="st170"
   x1="16"
   y1="5"
   x2="20"
   y2="5"
   id="line4321"
   clip-path="url(#SVGID_944_)"
   style="fill:none;stroke:#38434b;stroke-linecap:square;stroke-miterlimit:10" />
	<line
   class="st170"
   x1="16"
   y1="12"
   x2="20"
   y2="12"
   id="line4323"
   clip-path="url(#SVGID_944_)"
   style="fill:none;stroke:#38434b;stroke-linecap:square;stroke-miterlimit:10" />
	<line
   class="st170"
   x1="16"
   y1="19"
   x2="20"
   y2="19"
   id="line4325"
   clip-path="url(#SVGID_944_)"
   style="fill:none;stroke:#38434b;stroke-linecap:square;stroke-miterlimit:10" />
	<line
   class="st170"
   x1="16"
   y1="7"
   x2="23"
   y2="7"
   id="line4327"
   clip-path="url(#SVGID_944_)"
   style="fill:none;stroke:#38434b;stroke-linecap:square;stroke-miterlimit:10" />
	<line
   class="st170"
   x1="16"
   y1="14"
   x2="23"
   y2="14"
   id="line4329"
   clip-path="url(#SVGID_944_)"
   style="fill:none;stroke:#38434b;stroke-linecap:square;stroke-miterlimit:10" />
	<line
   class="st170"
   x1="16"
   y1="21"
   x2="23"
   y2="21"
   id="line4331"
   clip-path="url(#SVGID_944_)"
   style="fill:none;stroke:#38434b;stroke-linecap:square;stroke-miterlimit:10" />
</g>




























</svg>