<?xml version="1.0" encoding="UTF-8" standalone="no"?>
<svg
   xmlns:dc="http://purl.org/dc/elements/1.1/"
   xmlns:cc="http://creativecommons.org/ns#"
   xmlns:rdf="http://www.w3.org/1999/02/22-rdf-syntax-ns#"
   xmlns:svg="http://www.w3.org/2000/svg"
   xmlns="http://www.w3.org/2000/svg"
   version="1.1"
   id="svg5530"
   viewBox="0 0 15.869388 15.869388"
   height="4.478694mm"
   width="4.478694mm">
  <defs
     id="defs5532" />
  <metadata
     id="metadata5535">
    <rdf:RDF>
      <cc:Work
         rdf:about="">
        <dc:format>image/svg+xml</dc:format>
        <dc:type
           rdf:resource="http://purl.org/dc/dcmitype/StillImage" />
        <dc:title></dc:title>
      </cc:Work>
    </rdf:RDF>
  </metadata>
  <g
     transform="translate(-61.915009,-128.31092)"
     id="layer1">
    <g
       transform="translate(60.66864,126.89203)"
       id="Group-11-Copy-3"
       style="stroke:#37424a;stroke-width:2">
      <g
         transform="matrix(0.70710678,0.70710678,-0.70710678,0.70710678,8.7402466,0.79548124)"
         id="Group-10">
        <path
           id="Path-79"
           d="M 0.88163265,0 12.102984,11.221352" />
        <path
           id="path134"
           d="M 11.84476,0 0.62340843,11.221352" />
      </g>
    </g>
  </g>
</svg>
