<?xml version="1.0" encoding="UTF-8" standalone="no"?>
<!-- Created with Inkscape (http://www.inkscape.org/) -->

<svg
   xmlns:dc="http://purl.org/dc/elements/1.1/"
   xmlns:cc="http://creativecommons.org/ns#"
   xmlns:rdf="http://www.w3.org/1999/02/22-rdf-syntax-ns#"
   xmlns:svg="http://www.w3.org/2000/svg"
   xmlns="http://www.w3.org/2000/svg"
   xmlns:xlink="http://www.w3.org/1999/xlink"
   version="1.1"
   width="20"
   height="20"
   viewBox="0 0 20 20"
   id="Layer_1"
   xml:space="preserve"><metadata
   id="metadata739"><rdf:RDF><cc:Work
       rdf:about=""><dc:format>image/svg+xml</dc:format><dc:type
         rdf:resource="http://purl.org/dc/dcmitype/StillImage" /><dc:title></dc:title></cc:Work></rdf:RDF></metadata><defs
   id="defs737" />
<style
   type="text/css"
   id="style3" />


<rect
   width="1400"
   height="1330"
   x="-690"
   y="-655"
   id="rect9"
   style="fill:none" />
<rect
   width="1400"
   height="1330"
   x="-690"
   y="-655"
   id="rect11"
   style="fill:none" />
<rect
   width="1400"
   height="1330"
   x="-690"
   y="-655"
   id="rect13"
   style="fill:none" />


<rect
   width="1400"
   height="1330"
   x="-690"
   y="-655"
   id="rect19"
   style="fill:none" />




<rect
   width="1400"
   height="1330"
   x="-690"
   y="-655"
   id="rect55"
   style="fill:none" />
<path
   d="m -108.5,-70.449 c 0,-16.567 -13.432,-30 -30,-30 -16.568,0 -30,13.433 -30,30 0,16.568 13.432,30 30,30 16.568,0 30,-13.432 30,-30"
   id="path57"
   style="fill:none;stroke:#ffffff;stroke-miterlimit:10" />






<rect
   width="1400"
   height="1330"
   x="-690"
   y="-655"
   id="rect115"
   style="fill:none" />
<rect
   width="1400"
   height="1330"
   x="-690"
   y="-655"
   id="rect117"
   style="fill:none" />
<line
   class="st5"
   x1="3.904"
   y1="4.052"
   x2="15.436"
   y2="15.188"
   id="line119"
   style="fill:none;stroke:#d7364a;stroke-linecap:square;stroke-miterlimit:10" />
<rect
   width="1400"
   height="1330"
   x="-690"
   y="-655"
   id="rect121"
   style="fill:none" />
<g
   id="g123">
	<defs
   id="defs125">
		<polyline
   id="SVGID_1_"
   points="15.975,8.827 16.096,15.826 9.097,15.948   " />
	</defs>
	<clipPath
   id="SVGID_2_">
		<use
   id="use129"
   style="overflow:visible"
   x="0"
   y="0"
   width="20"
   height="20"
   xlink:href="#SVGID_1_" />
	</clipPath>
	<g
   clip-path="url(#SVGID_2_)"
   id="g131">
		<defs
   id="defs133">
			<rect
   width="1400"
   height="1330"
   x="-458.98199"
   y="-989.54401"
   id="SVGID_3_" />
		</defs>
		<clipPath
   id="SVGID_4_">
			<use
   id="use137"
   style="overflow:visible"
   x="0"
   y="0"
   width="20"
   height="20"
   xlink:href="#SVGID_3_" />
		</clipPath>
		<polyline
   class="st4"
   points="15.975,8.827 16.096,15.826 9.097,15.948   "
   id="polyline139"
   clip-path="url(#SVGID_4_)"
   style="fill:none;stroke:#d7364a;stroke-width:2;stroke-miterlimit:10" />
	</g>
</g>
<rect
   width="1400"
   height="1330"
   x="-690"
   y="-655"
   id="rect141"
   style="fill:none" />
<rect
   width="1400"
   height="1330"
   x="-690"
   y="-655"
   id="rect143"
   style="fill:none" />
<rect
   width="1400"
   height="1330"
   x="-690"
   y="-655"
   id="rect145"
   style="fill:none" />




<g
   id="g181">
	
		<text
   transform="translate(-92.5,-47.4492)"
   id="text183"
   style="font-size:12px;opacity:0.7;fill:#ffffff;font-family:Montserrat-Light">[ Manager ]</text>

</g>
<text
   transform="translate(-147.5,-6.4492)"
   id="text185"
   style="font-size:16px;fill:#ffffff;font-family:Montserrat-Regular">14</text>

<g
   id="g187">
	
		<text
   transform="translate(-166.3521,9.5508)"
   id="text189"
   style="font-size:12px;opacity:0.7;fill:#ffffff;font-family:Montserrat-Light">Members</text>

</g>
<line
   class="st15"
   x1="-90.5"
   y1="-26.573999"
   x2="-90.5"
   y2="23.426001"
   id="line191"
   style="opacity:0.2;fill:none;stroke:#ebeceb;stroke-miterlimit:10" />





<rect
   width="1400"
   height="1330"
   x="-690"
   y="-655"
   id="rect203"
   style="fill:none" />


<rect
   width="1400"
   height="1330"
   x="-690"
   y="-655"
   id="rect209"
   style="fill:none" />




<rect
   width="1400"
   height="1330"
   x="-690"
   y="-655"
   id="rect245"
   style="fill:none" />

<rect
   width="1400"
   height="1330"
   x="-690"
   y="-655"
   id="rect315"
   style="fill:none" />

<rect
   width="1400"
   height="1330"
   x="-690"
   y="-655"
   id="rect371"
   style="fill:none" />

<rect
   width="1400"
   height="1330"
   x="-690"
   y="-655"
   id="rect441"
   style="fill:none" />

<rect
   width="1400"
   height="1330"
   x="-690"
   y="-655"
   id="rect511"
   style="fill:none" />

<rect
   width="1400"
   height="1330"
   x="-690"
   y="-655"
   id="rect581"
   style="fill:none" />

<rect
   width="1400"
   height="1330"
   x="-690"
   y="-655"
   id="rect651"
   style="fill:none" />

<rect
   width="1400"
   height="1330"
   x="-690"
   y="-655"
   id="rect721"
   style="fill:none" />

<rect
   width="1400"
   height="1330"
   x="-690"
   y="-655"
   id="rect725"
   style="fill:none" />

<rect
   width="1400"
   height="1330"
   x="-690"
   y="-655"
   id="rect729"
   style="fill:none" />

<rect
   width="1400"
   height="1330"
   x="-690"
   y="-655"
   id="rect733"
   style="fill:none" />
</svg>