<?xml version="1.0" encoding="UTF-8" standalone="no"?>
<!-- Created with Inkscape (http://www.inkscape.org/) -->

<svg
   xmlns:dc="http://purl.org/dc/elements/1.1/"
   xmlns:cc="http://creativecommons.org/ns#"
   xmlns:rdf="http://www.w3.org/1999/02/22-rdf-syntax-ns#"
   xmlns:svg="http://www.w3.org/2000/svg"
   xmlns="http://www.w3.org/2000/svg"
   version="1.1"
   width="16"
   height="16"
   id="svg7545">
  <defs
     id="defs7547" />
  <metadata
     id="metadata7550">
    <rdf:RDF>
      <cc:Work
         rdf:about="">
        <dc:format>image/svg+xml</dc:format>
        <dc:type
           rdf:resource="http://purl.org/dc/dcmitype/StillImage" />
        <dc:title></dc:title>
      </cc:Work>
    </rdf:RDF>
  </metadata>
  <g
     transform="translate(-303.42857,-432.93361)"
     id="layer1">
    <g
       transform="translate(303.92857,433.43361)"
       id="Icon_Share_Blue"
       style="fill:none;stroke:#00b3be">
      <g
         id="g1444">
        <circle
           cx="12.5"
           cy="2.5"
           r="2.5"
           id="Oval-5" />
        <circle
           cx="12.5"
           cy="12.5"
           r="2.5"
           id="circle1447" />
        <circle
           cx="2.5"
           cy="7.5"
           r="2.5"
           id="circle1449" />
        <path
           d="m 4.5,6.5 6,-3"
           id="path1451" />
        <path
           d="m 4.5,11.5 6,-3"
           transform="matrix(1,0,0,-1,0,20)"
           id="path1453" />
      </g>
    </g>
  </g>
</svg>
