<?xml version="1.0" encoding="utf-8"?>
<!-- Generator: Adobe Illustrator 16.0.4, SVG Export Plug-In . SVG Version: 6.00 Build 0)  -->
<!DOCTYPE svg PUBLIC "-//W3C//DTD SVG 1.1//EN" "http://www.w3.org/Graphics/SVG/1.1/DTD/svg11.dtd">
<svg version="1.1" id="Layer_1" xmlns="http://www.w3.org/2000/svg" xmlns:xlink="http://www.w3.org/1999/xlink" x="0px" y="0px"
	 width="12px" height="12px" viewBox="0 0 12 12" enable-background="new 0 0 12 12" xml:space="preserve">
<path id="_x31_39-statistics_chart_8_" fill="#00B3BE" d="M28.711,499.434l-4.477,4.476l-2.901-2.898l-0.001,0.001l-0.002-0.001
	l-5.143,5.145l-2.369-2.367l-0.856,7.537l7.538-0.856l-2.434-2.435l3.266-3.266l2.904,2.904l1.879-1.881l-0.002-0.002l4.478-4.476
	L28.711,499.434z"/>
<polygon fill="#00759A" points="25.424,492.268 27.856,494.7 24.59,497.968 21.688,495.063 19.809,496.943 19.81,496.944 
	15.333,501.422 17.213,503.301 21.689,498.824 24.59,501.726 24.591,501.724 24.592,501.725 29.736,496.581 32.105,498.948 
	32.962,491.411 "/>
<path id="_x31_37-calendar_5_" fill="#FFFFFF" d="M0.485,11.516C0.485,11.783,0.702,12,0.97,12h10.062
	c0.268,0,0.484-0.217,0.484-0.484V3.407H0.485V11.516z M8.631,4.363h1.93v1.913h-1.93V4.363z M8.631,6.778h1.93v1.916h-1.93V6.778z
	 M8.631,9.162h1.93v1.914h-1.93V9.162z M6.21,4.363h1.929v1.913H6.21V4.363z M6.21,6.778h1.929v1.916H6.21V6.778z M6.21,9.162h1.929
	v1.914H6.21V9.162z M3.788,4.363h1.929v1.913H3.788V4.363z M3.788,6.778h1.929v1.916H3.788V6.778z M3.788,9.162h1.929v1.914H3.788
	V9.162z M1.367,4.363h1.929v1.913H1.367V4.363z M1.367,6.778h1.929v1.916H1.367V6.778z M1.367,9.162h1.929v1.914H1.367V9.162z
	 M11.031,1.467H9.122V0h-0.94v1.467H3.819V0h-0.94v1.467H0.97c-0.268,0-0.484,0.217-0.484,0.485v0.788h11.03V1.953
	C11.516,1.684,11.299,1.467,11.031,1.467z"/>
</svg>
