<?xml version="1.0" encoding="utf-8"?>
<!-- Generator: Adobe Illustrator 16.0.0, SVG Export Plug-In . SVG Version: 6.00 Build 0)  -->
<!DOCTYPE svg PUBLIC "-//W3C//DTD SVG 1.1//EN" "http://www.w3.org/Graphics/SVG/1.1/DTD/svg11.dtd">
<svg version="1.1" id="Layer_1" xmlns="http://www.w3.org/2000/svg" xmlns:xlink="http://www.w3.org/1999/xlink" x="0px" y="0px"
	 width="166px" height="40px" viewBox="0 0 166 40" style="enable-background:new 0 0 166 40;" xml:space="preserve">
<style type="text/css">
<![CDATA[
	.st0{opacity:0.5;fill:#1B242B;}
	.st1{opacity:0.8;fill:#BBA086;}
	.st2{fill:#E4D8D6;}
	.st3{opacity:0.3;fill:#FFFFFF;}
	.st4{opacity:0.5;fill:#BBA086;}
	.st5{opacity:0.5;fill:#BBA699;}
	.st6{fill:#1B242B;}
	.st7{fill:#878E92;}
	.st8{opacity:0.3;fill:#01759A;}
	.st9{fill:#8A7665;}
	.st10{fill:#BBA086;}
	.st11{fill:#F36E29;}
	.st12{fill:#F3F3F3;}
	.st13{opacity:0.4;fill:#BBA086;}
	.st14{fill:#FDC789;}
	.st15{opacity:0.3;}
	.st16{fill:#FFFFFF;}
	.st17{fill:none;}
	.st18{fill:#CDCCCC;}
	.st19{fill:#37434B;}
	.st20{fill:#38434B;}
	.st21{opacity:0.4;fill:#FFFFFF;}
	.st22{fill:#00B3BE;}
	.st23{fill:#01759A;}
	.st24{opacity:0.6;fill:#BBA086;}
	.st25{fill:#D8D9DB;}
	.st26{opacity:0.3;fill:#BBA086;}
	.st27{opacity:0.3;fill:#BBA699;}
]]>
</style>
<g>
	<g>
		<path class="st20" d="M54.059,12.586l-1.67,1.977c-0.745-0.907-1.848-1.475-2.852-1.475c-1.799,0-3.16,1.427-3.16,3.291
			c0,1.896,1.361,3.338,3.16,3.338c0.956,0,2.059-0.519,2.852-1.328l1.686,1.782c-1.215,1.248-3.014,2.074-4.684,2.074
			c-3.42,0-5.964-2.512-5.964-5.835c0-3.273,2.609-5.736,6.062-5.736C51.174,10.674,52.924,11.419,54.059,12.586z"/>
		<path class="st20" d="M66.715,16.427c0,3.307-2.625,5.818-6.143,5.818c-3.5,0-6.126-2.495-6.126-5.818
			c0-3.306,2.626-5.753,6.126-5.753C64.09,10.674,66.715,13.137,66.715,16.427z M57.396,16.443c0,1.912,1.475,3.387,3.209,3.387
			c1.75,0,3.144-1.475,3.144-3.387s-1.394-3.355-3.144-3.355C58.854,13.088,57.396,14.531,57.396,16.443z"/>
		<path class="st20" d="M70.506,20.025l-0.826,2.09h-2.967l4.896-11.345h2.966l4.781,11.345h-3.079l-0.811-2.09H70.506z
			 M73.002,13.639l-1.652,4.198h3.273L73.002,13.639z"/>
		<path class="st20" d="M89.986,12.586l-1.67,1.977c-0.746-0.907-1.848-1.475-2.853-1.475c-1.8,0-3.161,1.427-3.161,3.291
			c0,1.896,1.361,3.338,3.161,3.338c0.956,0,2.058-0.519,2.853-1.328l1.686,1.782c-1.215,1.248-3.014,2.074-4.684,2.074
			c-3.42,0-5.965-2.512-5.965-5.835c0-3.273,2.609-5.736,6.062-5.736C87.101,10.674,88.852,11.419,89.986,12.586z"/>
		<path class="st20" d="M98.898,22.115v-4.408h-4.701v4.408h-2.884V10.771h2.884v4.668h4.701v-4.668h2.885v11.345H98.898z"/>
		<path class="st20" d="M112.965,18.923h-0.082h-2.188v3.192h-2.885V10.771h5.072c2.998,0,4.717,1.427,4.717,3.954
			c0,1.734-0.729,2.982-2.059,3.646l2.383,3.744h-3.273L112.965,18.923z M112.883,16.654c1.248,0,1.978-0.633,1.978-1.832
			c0-1.184-0.729-1.783-1.978-1.783h-2.188v3.615H112.883z"/>
		<path class="st20" d="M129.754,17.351c0,2.999-1.994,4.895-5.17,4.895c-3.193,0-5.235-1.896-5.235-4.895v-6.58h2.886v6.58
			c0,1.54,0.988,2.479,2.365,2.479c1.361,0,2.285-0.939,2.285-2.479v-6.58h2.869V17.351z"/>
		<path class="st20" d="M134.711,13.039v2.626h5.09v2.269h-5.09v4.182h-2.884V10.771h8.411v2.269H134.711z"/>
		<path class="st20" d="M151.826,17.351c0,2.999-1.994,4.895-5.171,4.895c-3.192,0-5.235-1.896-5.235-4.895v-6.58h2.885v6.58
			c0,1.54,0.989,2.479,2.367,2.479c1.361,0,2.285-0.939,2.285-2.479v-6.58h2.869V17.351z"/>
		<path class="st20" d="M162.731,11.904l-1.086,2.254c-1.199-0.697-2.706-1.184-3.63-1.184c-0.746,0-1.248,0.275-1.248,0.826
			c0,1.961,5.996,0.844,5.996,4.943c0,2.27-2.01,3.469-4.538,3.469c-1.896,0-3.841-0.713-5.187-1.815l1.119-2.22
			c1.166,1.021,2.917,1.701,4.1,1.701c0.908,0,1.475-0.34,1.475-0.988c0-2.01-5.996-0.811-5.996-4.83c0-2.091,1.799-3.42,4.521-3.42
			C159.895,10.641,161.564,11.143,162.731,11.904z"/>
	</g>
	<g>
		<path class="st22" d="M45.182,27.082v3.293h-0.654v-3.293h-1.225v-0.588h3.109v0.588H45.182z"/>
		<path class="st22" d="M47.626,27.082v1.048h1.896v0.587h-1.896v1.07h2.185v0.588h-2.838v-3.881h2.771v0.588H47.626z"/>
		<path class="st22" d="M51.157,29.499l-0.372,0.876h-0.682l1.713-3.881h0.672l1.695,3.881h-0.697l-0.372-0.876H51.157z
			 M52.133,27.193l-0.731,1.724h1.464L52.133,27.193z"/>
		<path class="st22" d="M58.197,30.375l-0.005-2.899l-1.226,2.495H56.54l-1.226-2.495v2.899h-0.615v-3.881h0.776l1.28,2.578
			l1.275-2.578h0.771v3.881H58.197z"/>
		<path class="st22" d="M64.756,30.375l-0.006-2.899l-1.225,2.495h-0.428l-1.225-2.495v2.899h-0.615v-3.881h0.775l1.281,2.578
			l1.275-2.578h0.77v3.881H64.756z"/>
		<path class="st22" d="M66.934,29.499l-0.371,0.876h-0.682l1.713-3.881h0.671l1.696,3.881h-0.698l-0.372-0.876H66.934z
			 M67.91,27.193l-0.732,1.724h1.465L67.91,27.193z"/>
		<path class="st22" d="M73.199,30.375l-2.068-2.783v2.783h-0.654v-3.881h0.643l2.08,2.789v-2.789h0.643v3.881H73.199z"/>
		<path class="st22" d="M75.416,29.499l-0.371,0.876h-0.682l1.713-3.881h0.67l1.697,3.881h-0.699l-0.371-0.876H75.416z
			 M76.392,27.193l-0.731,1.724h1.463L76.392,27.193z"/>
		<path class="st22" d="M82.085,28.468v1.431c-0.394,0.299-0.976,0.504-1.508,0.504c-1.147,0-2.04-0.859-2.04-1.968
			s0.904-1.957,2.079-1.957c0.554,0,1.108,0.211,1.491,0.544l-0.371,0.482c-0.3-0.277-0.715-0.444-1.12-0.444
			c-0.793,0-1.413,0.604-1.413,1.375c0,0.776,0.626,1.38,1.418,1.38c0.289,0,0.615-0.1,0.893-0.266v-1.081H82.085z"/>
		<path class="st22" d="M83.664,27.082v1.048h1.896v0.587h-1.896v1.07h2.186v0.588h-2.839v-3.881h2.772v0.588H83.664z"/>
		<path class="st22" d="M90.146,30.375l-0.006-2.899l-1.226,2.495h-0.426l-1.226-2.495v2.899h-0.616v-3.881h0.777l1.28,2.578
			l1.274-2.578h0.771v3.881H90.146z"/>
		<path class="st22" d="M92.43,27.082v1.048h1.896v0.587H92.43v1.07h2.184v0.588h-2.838v-3.881h2.771v0.588H92.43z"/>
		<path class="st22" d="M98.134,30.375l-2.067-2.783v2.783h-0.654v-3.881h0.643l2.079,2.789v-2.789h0.644v3.881H98.134z"/>
		<path class="st22" d="M101.222,27.082v3.293h-0.654v-3.293h-1.226v-0.588h3.11v0.588H101.222z"/>
	</g>
	<circle class="st16" cx="21.422" cy="19.99" r="17.71"/>
	<g>
		<path class="st22" d="M35.197,25.681c-0.223-0.372-0.711-1.071-0.707-1.661c0.005-0.59-0.501-5.785-5.945-5.153
			c-0.171-0.68-1.904-1.733-1.904-1.733l-10.606-0.566c0,0-1.771,0.965-2.786,2.178c-0.151,0.181-0.287,0.367-0.396,0.559
			c-0.027,0.047-0.055,0.094-0.078,0.141c-1.433,0.035-3.537,0.668-4.523,3.132c-0.174,0.431-0.311,0.913-0.404,1.458
			c-0.171,0.918-0.441,1.107-0.748,1.461c-0.734,0.844-1.552,3.533-1.052,5.81c0.047-0.015,8.296-1.356,8.345-1.356
			c0,0,1.271,3.248,2.045,4.973l3.076-1.041c0,0,5.803,1.313,5.752,0.621c0.379-1.725,1.26-5.777,1.266-5.776
			c1.59,0.111,7.259,1.181,9.58,2.796C36.656,29.328,36.032,27.084,35.197,25.681z"/>
		<path class="st8" d="M28.018,26.74c0-1.021,1.103-1.566,0.722-2.116c-0.38-0.55-1.946-1.722-0.679-4.613
			c0.328-0.749,0.721-1.007,1.174-1.194c-0.198-0.01-0.469,0.046-0.689,0.05c-0.115-0.46-0.946-1.091-1.472-1.452
			c-0.009-0.001-0.019-0.003-0.028-0.006c-0.035-0.006-0.064-0.016-0.09-0.03c-0.492,0.171-1.029,0.835-1.029,1.443
			c0,0.114,1.629,4.935,1.289,5.803c-0.541,1.39-2.623,1.947-4.527,2.032c-0.924,0.136-2.108,0.162-3.307,0.227
			c-0.57-0.082-1.178-0.224-1.563-0.734c-1.21-1.614-1.668-4.748-1.671-5.164c-0.003-0.418,0.235-0.649,1.294-1.072
			c-1.059-0.105-4.17-1.15-4.193-1.168c-0.188,0.227-0.352,0.46-0.475,0.699c0.816,0.189,1.137,0.377,1.631,0.781
			c0.764,0.627,2.201,3.472,1.326,4.522c-0.68,0.813-1.734,0.714-3.811,0.971c-2.549,0.315,0.543,0.798,1.336,0.824
			c0.417,0.015,1.346-0.089,1.703-0.198c-0.799,0.667-1.541,1.375-2.15,2.191c-0.053,0.068-6.763,2.342-6.826,2.442
			C6,31.049,6.021,31.155,6.046,31.304c1.533-0.452,6.489-2.025,6.464-1.989c0.15-0.1,0.896-0.183,1.68-0.504
			c0.727,0.371,5.693,1.295,5.693,1.437c0,0.034,0.033,0.056,0.113,0.056c0.044,0.002,0.088,0.002,0.132,0.002
			c3.501,0,11.654,2.898,14.308,0.534c0.107-0.097,0.19-0.249,0.256-0.403C33.555,29.624,28.018,28.737,28.018,26.74z"/>
		<path class="st16" d="M33.255,24.822c0.005,0.72,0.417,1.327,0.56,2.018c0.164,1.077,0.219,2.084-0.258,3.09
			c0.391,0.127,0.762,0.3,1.135,0.506c0.475-1.275,0.336-2.777-0.1-4.054c-0.188-0.556-0.554-1.123-0.619-1.663
			c-0.154-1.258-0.305-2.253-0.918-3.408c-0.723-1.229-2.148-2-3.609-2.064c1.218,0.264,2.391,1.059,2.953,1.88
			S33.261,23.42,33.255,24.822z"/>
		<path class="st8" d="M34.771,30.734l0.916,0.508c0,0,0.532-2.133-0.526-4.53C35.521,29.728,34.771,30.734,34.771,30.734z"/>
		<g>
			<polygon class="st20" points="19.414,22.781 17.184,33.7 25.261,35.473 28.088,24.553 			"/>
			<polygon class="st0" points="19.754,23.551 17.774,33.242 25.023,34.828 27.498,25.136 			"/>
			<polygon class="st16" points="19.621,23.284 17.643,32.976 24.891,34.563 27.365,24.871 			"/>
			<polygon class="st7" points="26.213,24.17 25.635,25.78 20.956,24.816 21.37,23.182 			"/>
			<polygon class="st25" points="26.098,23.826 25.479,25.605 20.799,24.641 21.176,22.798 			"/>
			<path class="st7" d="M22.667,23.444c0,0,0.283-0.892,1.077-0.798c0.836,0.1,0.722,1.096,0.722,1.096L22.667,23.444z"/>
			<g>
				
					<ellipse transform="matrix(0.9397 0.3419 -0.3419 0.9397 9.9679 -5.3704)" class="st25" cx="20.218" cy="25.59" rx="0.466" ry="0.509"/>
				<polygon class="st20" points="19.814,25.506 20.049,25.527 20.172,25.699 20.557,25.315 20.811,25.25 20.091,26.145 				"/>
				<polygon class="st20" points="21.106,25.441 21.043,25.713 24.345,26.395 24.387,26.119 				"/>
				<polygon class="st20" points="20.979,25.93 20.916,26.2 22.99,26.627 23.032,26.352 				"/>
			</g>
		</g>
		<path class="st14" d="M36.109,31.52c-2.646-1.844-6.437-2.404-9.588-2.797l-4.523,0.828l-0.131,0.023
			c0.021-0.057-0.549,0.359-0.527,0.302l-2.724,1.181l-0.148,2.794c0.215-0.202,0.204,0.966,0.407,0.735
			c0.029,0.053,0.068,0.105,0.11,0.161c0.917,1.167,4.526,2.977,8.224,2.991c1.766,0.008,5.592-0.925,6.608-1.729
			C34.426,35.527,35.813,32.704,36.109,31.52z"/>
		<path class="st21" d="M25.481,29.832c0.847-0.537,1.456-0.838,1.456-0.838s4.666,0.691,6.008,1.537
			c1.342,0.847,0.609,0.859-0.932,0.627c-1.029-0.156-5.566-0.466-6.405-0.381S24.635,30.368,25.481,29.832z"/>
		<path class="st26" d="M18.619,33.986c0.184,0.163,0.379,0.321,0.594,0.475c-0.082-0.039-0.125-0.061-0.125-0.061
			s5.184,3.477,9.736,2.639c4.855-0.894,6.26-3.725,6.861-5.797c-0.295-0.183-0.602-0.352-0.917-0.508
			c-1.767,3.4-4.521,4.676-6.911,4.981c-0.6,0.075-2.558,0.14-3.377-1.243c-0.904-1.523-0.495-3.162-0.016-3.543
			c-0.98-0.648,2.035-1.977,2.116-2.031l-4.583,0.652l-0.218,0.062c-0.154,0.094-0.456,0.306-0.44,0.264l-2.724,1.181l-0.148,2.794
			C18.537,33.785,18.582,33.861,18.619,33.986z"/>
		<path class="st26" d="M23.355,29.303l0.008-0.002C23.363,29.298,23.36,29.3,23.355,29.303z"/>
		<path class="st14" d="M18.875,34.586c-2.672,3.053-8.867,2.681-9.383,2.283c-0.768-0.591-1.621-1.973-1.858-2.262
			C7.633,34.604,7.63,34.603,7.629,34.6c-0.498-0.611-1.078-1.57-1.424-2.693c-0.061-0.196-0.113-0.398-0.159-0.603
			c0.946-0.31,2.683-0.878,3.938-1.285c0.03-0.01,0.059-0.019,0.086-0.028c1.506-2.679,14.126-3.983,14.465-3.73
			c0.658,0.494,1.791,1.64,2.234,2.485c-0.594,0.169-1.557,0.421-3.138,0.507C23.572,29.452,21.545,31.535,18.875,34.586z"/>
		<path class="st21" d="M22.561,27.417c-0.295,0.095-6.98,1.577-9.203,2.251c-1.225,0.369-2.719,0.883-3.655,1.941
			c0.053-0.797,1.056-1.882,1.974-2.422c1.548-0.913,5.834-1.977,12.662-2.807C24.105,26.91,23.089,27.249,22.561,27.417z"/>
		<path class="st16" d="M9.787,21.485c-0.831,1.229-0.565,2.444-0.559,3.848c-0.005,0.719-1.059,2.462-0.475,4.637
			c-0.367,0.126-0.971,0.34-0.971,0.34c-0.721-2.445,0.559-3.902,0.723-5.073c0.174-1.252,0.045-2.234,0.613-3.39
			c0.67-1.228,2.205-2.167,3.608-2.167C11.849,19.893,10.514,20.344,9.787,21.485C9.669,21.66,10.014,21.13,9.787,21.485z"/>
		<path class="st26" d="M24.613,26.782c-0.839,0.479-6.285,6.617-8.998,7.831c-2.906,1.299-4.273,0.941-6.645,0.719
			c0,0,3.434,2.113,7.576,0.17c2.754-1.291,5.576-5.092,6.826-6.425c0.824-0.084,1.705-0.156,2.807-0.58
			C26.158,28.157,25.332,27.205,24.613,26.782z"/>
		<path class="st5" d="M22.433,22.762c1.481,0,3.73-2.074,4.817-5.223c-0.189-0.141-0.609-0.34-0.609-0.34l-10.584-0.607
			C16.984,20.428,19.746,22.762,22.433,22.762z"/>
		<path class="st14" d="M22.433,22.084c1.481,0,3.704-1.76,4.792-4.563c-0.445-0.34-0.584-0.389-0.584-0.389l-10.584-0.541
			C16.984,20.006,19.746,22.084,22.433,22.084z"/>
		<path class="st3" d="M12.27,21.654c-0.385,0.4-0.888,0.901-1.717,0.967c-0.418,0.033-0.563-0.381-0.281-0.873
			c0.184-0.32,1.043-1.221,1.955-1.287C13.137,20.395,12.654,21.255,12.27,21.654z"/>
		<path class="st27" d="M6.049,31.304c0.027,0.13,0.059,0.257,0.094,0.382C6.334,31.654,7.971,31.49,8.6,31.5
			c0.211,0.005,0.456,0.039,0.668,0.053c0.226-0.463,0.492-1.079,0.803-1.563C9.404,30.206,7.4,30.862,6.049,31.304z"/>
		<path class="st3" d="M30.018,21.112c-0.46-0.059-1.277-0.366-1.452-0.714c-0.103-0.202,0.048-0.572,0.364-0.602
			c0.314-0.029,1.508,0.006,1.948,0.629C31.32,21.049,30.479,21.172,30.018,21.112z"/>
		<g>
			<path class="st11" d="M16.885,4.047c0,0-2.379-0.148-1.902,3.177c0,0,0.203,2.167,2.141,0.972S17.531,3.86,16.885,4.047z"/>
			<path class="st11" d="M25.52,4.251c0,0,2.379-0.142,1.903,3.032c0,0-0.204,2.069-2.142,0.928
				C23.344,7.07,24.874,4.072,25.52,4.251z"/>
			<path class="st14" d="M27.627,7.445c-0.771-0.363-1.34,0.184-1.633,0.587c-0.197-0.96-0.141-2.84-0.237-3.577
				c-0.671-5.078-8.617-4.753-8.871,0c0,0,0.021,2.199-0.511,3.823c0,0-0.441-1.376-1.597-0.833
				c-1.151,0.542-1.323,2.773,0.09,4.135c-0.169,0.535-0.276,1.05-0.276,1.49c0,1.336,0.52,2.715,2.338,4.472
				c0.048,0.048,0.341,0.321,0.398,0.372c2.141,1.938,1.547,2.295,4.299,2.295c0.619,0,1.191-0.111,1.713-0.303
				c1.801-0.658,3.031-2.27,3.744-3.572c0,0,0.764-1.529,0.764-3.059c0-0.477-0.152-1.01-0.368-1.551
				C28.674,10.314,28.713,7.957,27.627,7.445z"/>
			<path class="st9" d="M17.748,12.961c0.021-1.25,2.597-0.184,3.465-0.15c0.717,0.027,2.201-1.207,2.879-0.008
				c-1.101-0.6-1.309,0.397-2.936,0.507C20.168,13.377,18.257,12.186,17.748,12.961z"/>
			<path class="st11" d="M26.448,15.145c-0.173,1.55-2.317,2.732-2.356,2.736c0.656-2.059,0.409-4.183,0.066-4.903
				c-0.555-1.165-1.641-0.204-2.833-0.12c-1.228,0.084-3.3-1.016-3.499,0.035c-0.273,1.443,0.107,4.295,0.107,4.301
				c0,0-2.406-1.957-2.27-4.102c0.049-0.783,1.135-1.639,1.846-1.912l7.534,0.107C26.317,12.051,26.617,13.621,26.448,15.145z"/>
			<path class="st10" d="M17.658,11.516c-0.021-0.066-0.033-0.127-0.033-0.184c0-0.235,0.184-0.379,0.422-0.379
				c0.477,0,2.139,1.105,3.585,1.105c1.368,0,1.54-1.932,2.677-1.932c0.303,0,0.979,0.826,1.037,1.121
				c0.197,0.989-1.597,1.581-2.582,1.778c-1.48,0.296-2.82-0.306-3.301-0.551C18.881,12.18,17.883,12.166,17.658,11.516z"/>
			<path class="st2" d="M25.865,15.635c0.004-0.024-0.059-1.952-0.265-2.461c-0.022,0.439-0.096,1.721-0.259,2.338
				c0.001-0.011-0.207-2.29-0.439-2.74c-0.02,0.279,0.049,3.066-0.674,4.625c-0.041,0.162-0.086,0.322-0.137,0.484
				c0.033-0.002,1.57-0.848,2.149-2.047c0.064-0.285,0.107-0.525,0.121-0.636c0.129-1.063-0.091-1.463-0.186-1.813
				C26.172,13.767,26.252,14.412,25.865,15.635z"/>
			<path class="st2" d="M17.535,12.771c-0.231,0.436-0.439,2.635-0.438,2.646c-0.164-0.597-0.236-1.833-0.258-2.257
				c-0.205,0.491-0.213,1.938-0.209,1.961c-0.386-1.18-0.361-1.389-0.366-1.756c-0.095,0.336-0.188,0.7-0.061,1.728
				c0.003,0.017,0.007,0.036,0.011,0.056c0.674,1.195,1.719,2.045,1.719,2.045s-0.022-0.165-0.051-0.433
				C17.461,15.483,17.555,13.055,17.535,12.771z"/>
			<path class="st13" d="M26.837,9.605c-0.198-0.549,0.091-0.902,0.354-0.902c0.291,0,0.667,0.342,0.667,0.994
				c0,0.535-0.264,0.896-0.477,0.896C27.124,10.594,26.969,9.975,26.837,9.605z"/>
			<path class="st13" d="M15.605,9.268c0.096-0.455-0.207-0.561-0.342-0.598c-0.748-0.215-0.773,0.599-0.773,1.043
				c0,0.281,0.191,0.832,0.426,0.832C15.391,10.545,15.498,9.779,15.605,9.268z"/>
			<path class="st26" d="M23.34,19.906c1.801-0.658,3.178-2.585,3.902-4.51c0.723-1.926-0.141-4.261-0.902-5.531
				c0.526,2.281,0.059,6.281-0.731,6.395c-0.468,0.066-1.14-3.673-1.193-3.064c-0.296,3.386-1.228,4.486-1.989,4.826
				c-0.762,0.338-2.455,0.507-3.09,0.084c-0.381-0.254-1.27-2.032-1.523-2.285c-0.255-0.253-1.664-0.31-2.546-1.043
				c0.351,0.811,0.945,1.82,1.708,2.653c0.762,0.831,1.9,2.778,4.652,2.778C22.246,20.209,22.818,20.098,23.34,19.906z"/>
			<path class="st6" d="M19.347,5.291c-0.113,0.023-1.122,0.317-1.365,0.613C17.932,5.965,18.014,6.127,18.359,6
				c0.209-0.076,0.777-0.372,1.262-0.175c0.477,0.196,0.677,0.047,0.68-0.021C20.316,5.427,19.66,5.226,19.347,5.291z"/>
			<path class="st6" d="M23.293,5.291c0.113,0.023,1.121,0.317,1.365,0.613C24.707,5.965,24.626,6.127,24.281,6
				c-0.209-0.076-0.778-0.372-1.264-0.175c-0.476,0.196-0.677,0.047-0.68-0.021C22.322,5.427,22.979,5.226,23.293,5.291z"/>
			<g>
				<path class="st14" d="M23.886,10.085L18.54,9.926c0,0-0.897,0.053-1.021,0.579c-0.1,0.431-0.42,1.292,1.654,1.19
					c0.849,0.645,2.73,0.78,3.853,0.203c1.462,0.17,2.108-0.306,2.073-0.611C25.066,10.98,25.063,10.033,23.886,10.085z"/>
				<path class="st10" d="M24.504,11.03c-1.133,0-1.871,0.825-3.235,0.825c-1.442,0-2.818-1.029-3.293-1.029
					c-0.237,0-0.405,0.16-0.421,0.422c-0.002,0.034,0.006,0.069,0.018,0.106c0.192,0.228,0.639,0.388,1.602,0.341
					c0.849,0.645,2.73,0.78,3.853,0.203c1.462,0.17,2.108-0.306,2.073-0.611c-0.001-0.008-0.002-0.018-0.003-0.027
					C25.006,11.068,24.747,11.03,24.504,11.03z"/>
				<g>
					<g>
						<path class="st6" d="M18.038,11.222c-0.312,0.135,0.523,0.448,1.097,0.474h0.039C19.174,11.695,18.65,10.961,18.038,11.222z"
							/>
						<path class="st6" d="M24.348,11.248c-0.604-0.223-1.321,0.65-1.321,0.65l0.124,0.014
							C23.328,11.924,24.945,11.469,24.348,11.248z"/>
					</g>
				</g>
				<path class="st21" d="M22.568,10.032c0,0.388-0.646,0.702-1.444,0.702s-1.444-0.314-1.444-0.702c0-0.386,0.646-1.19,1.444-1.19
					S22.568,9.646,22.568,10.032z"/>
				<path class="st26" d="M23.602,9.492c-1.146-0.484-1.123-1.205-1.139-1.288c-0.008-0.028-0.006-0.029-0.012-0.058
					C22.782,8.567,23,8.688,23.52,8.688c0.809,0,1.463-0.704,1.463-1.573c0-0.867-0.654-1.572-1.463-1.572
					c-0.295,0-0.569,0.096-0.799,0.258l-0.309,0.043c0,0-0.559,0.452-0.537,1.236c0.021,0.782,0.063,1.375,0.995,2.771
					c0.411,0.616-1.249,1.418-2.561,1.271c-0.927-0.104-1.435-0.636-1.646-0.636c-0.23,0,0.705,0.806,1.326,1.017
					c0.621,0.212,2.096,0.711,3.9-0.933c0.215-0.195,0.26-0.475,0.554-0.301c0.323,0.19,0.651,0.973,0.649,0.959
					C25.064,10.965,25.102,10.127,23.602,9.492z"/>
				<path class="st26" d="M19.52,8.99c0.303-0.219,1.107-0.654,1.131-1.875c0.017-0.867-0.654-1.572-1.461-1.572
					c-0.809,0-1.463,0.705-1.463,1.572c0,0.452,0.179,0.857,0.462,1.145c0.046,0.15,0.208,0.338,0.259,0.494
					c0.121,0.367-0.248,0.455-0.48,0.646c-0.232,0.19-0.53,0.271-0.721,0.758c-0.191,0.486,0.228,1.033,0.228,1.033
					s-0.087-0.318-0.017-0.586c0.201-0.764,0.799-0.958,0.995-0.416C18.721,9.527,19.111,9.287,19.52,8.99z"/>
			</g>
			<g>
				<ellipse class="st12" cx="23.484" cy="7.573" rx="1.227" ry="1.262"/>
				<g>
					<circle class="st6" cx="23.542" cy="7.438" r="0.799"/>
					<ellipse class="st16" cx="22.803" cy="7.582" rx="0.204" ry="0.152"/>
				</g>
				<path class="st14" d="M22.244,7.421c0.065-0.639,0.605-1.136,1.26-1.136c0.668,0,1.213,0.514,1.264,1.167
					C24.146,7.207,23.043,6.902,22.244,7.421z"/>
				<g>
					<g>
						<path class="st6" d="M25.201,7.653c-0.785-0.346-2.37-0.616-3.109-0.101C22.99,6.674,24.594,7.248,25.201,7.653z"/>
					</g>
				</g>
				<ellipse class="st12" cx="19.153" cy="7.573" rx="1.228" ry="1.262"/>
				<g>
					<circle class="st6" cx="19.211" cy="7.438" r="0.799"/>
					<ellipse class="st16" cx="18.472" cy="7.582" rx="0.204" ry="0.152"/>
				</g>
				<path class="st14" d="M20.436,7.421c-0.066-0.639-0.605-1.136-1.26-1.136c-0.667,0-1.213,0.514-1.264,1.167
					C18.534,7.207,19.637,6.902,20.436,7.421z"/>
				<g>
					<path class="st6" d="M17.58,7.653c0.785-0.346,2.371-0.616,3.11-0.101C19.791,6.674,18.188,7.248,17.58,7.653z"/>
				</g>
			</g>
			<path class="st1" d="M17.027,4.174c0,0.68,0.41,1.949,1.236,2.08C19.012,6.371,20.547,5.976,21.367,6
				c1.762,0.051,2.768,0.135,3.928,0.592c0.541,0.214,0.379,1.586,0.681,1.484c0.149-0.339,0.466-0.745,0.847-0.894
				c-0.127-0.443-1.082-2.542-1.037-2.908c-1.135,1.568-2.334,0.468-3.814,0.155c-0.857-0.181-1.492-0.069-2.345,0.1
				c-0.732,0.145-1.566,0.186-2.241-0.165c-0.134-0.069-0.258-0.161-0.357-0.242"/>
			<path class="st4" d="M18.158,18.644c-0.49-0.351,0.049,0.396,0.467,0.747c2.68,2.258,5.799,1.396,7.068-0.889
				c0.264-0.475,0.023-0.626-0.287-0.315C23.442,20.152,20.24,20.125,18.158,18.644z"/>
			<path class="st22" d="M21.61,0.262c-2.005,0-4.725,1.324-4.69,4.01c0,0,0.374,1.359,2.072,1.055
				c1.701-0.307,2.313-0.408,3.128-0.137c0.815,0.272,2.21,0.782,2.788,0.51c0.578-0.271,0.883-0.801,0.883-1.428
				C25.791,2.232,23.615,0.262,21.61,0.262z"/>
			<g class="st15">
				<path class="st23" d="M21.533,2.404c-0.03-0.055-0.092-0.088-0.157-0.09l-0.021,0.002c-0.092,0-0.164,0.067-0.163,0.152
					l0.006,0.264c0.002,0.092-0.075,0.165-0.173,0.165l-0.321,0.001c-0.097-0.001-0.173-0.074-0.169-0.166L20.6,1.065
					c0.002-0.063,0.07-0.115,0.15-0.115l0.725-0.001c0.559-0.002,0.912,0.21,0.974,0.611c0.042,0.273-0.054,0.488-0.276,0.616
					l0.378,0.472c0.04,0.049,0.05,0.113,0.026,0.164c-0.023,0.052-0.077,0.085-0.141,0.085h-0.51c-0.07,0-0.135-0.038-0.168-0.097
					L21.533,2.404z M21.522,1.809c0.161,0,0.248-0.086,0.235-0.229c-0.01-0.135-0.105-0.211-0.26-0.209H21.32
					c-0.084,0-0.15,0.056-0.148,0.127l0.004,0.177c0.001,0.074,0.073,0.134,0.162,0.134H21.522z"/>
			</g>
			<g>
				<path class="st16" d="M21.473,2.283c-0.031-0.053-0.091-0.087-0.156-0.088l-0.02,0.001c-0.092,0-0.166,0.067-0.164,0.151
					l0.006,0.266c0.002,0.09-0.075,0.164-0.174,0.163l-0.32,0.003c-0.098-0.002-0.174-0.076-0.17-0.166l0.064-1.668
					c0.003-0.063,0.07-0.115,0.15-0.115l0.725-0.002c0.56,0,0.913,0.212,0.975,0.611c0.041,0.274-0.055,0.489-0.277,0.618
					l0.378,0.472c0.04,0.049,0.05,0.112,0.026,0.164c-0.022,0.051-0.077,0.083-0.141,0.083h-0.51c-0.068,0-0.135-0.036-0.167-0.097
					L21.473,2.283z M21.463,1.688c0.16,0,0.247-0.085,0.236-0.228c-0.012-0.135-0.107-0.211-0.262-0.211h-0.176
					c-0.084,0-0.152,0.057-0.15,0.127l0.004,0.178c0.002,0.073,0.074,0.135,0.162,0.135L21.463,1.688z"/>
			</g>
			<path class="st4" d="M21.074,14.172c-0.44,0-0.881-0.113-1.257-0.353c0.304,0.473,0.763,0.972,1.376,0.972
				c0.67,0,0.959-0.559,1.314-1.046C22.093,14.021,21.584,14.172,21.074,14.172z"/>
			<path class="st8" d="M21.619,3.422c1.996,0.199,3.297,0.656,3.846,0.885c0.199,0.082,0.301,0.135,0.301,0.135l0.016,0.002
				c0.007-0.057,0.01-0.113,0.01-0.172c0-1.336-0.934-2.644-2.143-3.387c-0.357,0.513-1.754,2.021-3.854,2.549
				C20.348,3.371,20.961,3.357,21.619,3.422z"/>
			<path class="st3" d="M25.164,4.188c-0.657-0.242-1.85-0.597-3.545-0.767c-1.988-0.199-3.575,0.346-4.287,0.656
				c-0.25,0.107-0.391,0.186-0.401,0.192C17,4.475,17.451,5.569,18.992,5.293C20.664,4.992,18.518,2.836,25.164,4.188z"/>
		</g>
		<g>
			<path class="st24" d="M21.307,31.95c0,0,0.045,1.204,0.84,1.806c1.064,0.807,1.303,2.723,1.303,2.723l1.735-0.155l-0.341-3.89
				L21.307,31.95z"/>
			<path class="st20" d="M22.684,30.388l-0.248-0.413c-0.842-1.408-1.785-2.312-2.699-3.186c-0.908-0.871-1.766-1.693-2.457-2.929
				c-1.682-3.013-2.747-6.797-1.533-7.659l0.325,0.459c-0.719,0.51-0.133,3.646,1.699,6.926c0.649,1.162,1.478,1.956,2.355,2.797
				c0.851,0.814,1.727,1.654,2.539,2.898c0.726-1.287,2.93-5.219,3.407-6.347c0.809-1.909,1.392-5.237,0.512-5.749l0.281-0.486
				c1.404,0.815,0.387,4.892-0.275,6.454c-0.584,1.379-3.543,6.595-3.668,6.815L22.684,30.388z"/>
			<g>
				<path class="st18" d="M22.102,30.096c0,0,0.023-0.565,0.135-0.623c0.112-0.059,0.853,0.076,0.853,0.076s0.421,0.416,0.543,0.652
					C23.609,30.221,22.102,30.096,22.102,30.096z"/>
				<path class="st25" d="M25.309,30.769c0,0-0.201-0.514-0.693-0.595c-0.422-0.071-2.053-0.262-2.053-0.262
					s-0.902-0.088-1.205,1.133s0.369,2.004,1.096,2.11c0.726,0.104,0.875,0.136,0.875,0.136s0.252,0.012,0.361,0.392
					c0.109,0.383,0.465,2.134,0.465,2.134l1.97-0.145l0.297-0.388c0,0-0.267-1.61-0.604-3.024
					C25.621,31.443,25.309,30.769,25.309,30.769z"/>
				<path class="st7" d="M24.574,35.363c0,0-1.028-4.018-1.229-4.631c-0.201-0.612-0.596-0.828-1.127-0.751
					c-0.037,0.006-0.074,0.013-0.109,0.022c-0.271,0.122-0.594,0.402-0.752,1.041c-0.303,1.221,0.369,2.004,1.096,2.11
					c0.726,0.104,0.875,0.136,0.875,0.136s0.252,0.012,0.361,0.392c0.109,0.383,0.465,2.134,0.465,2.134l1.97-0.145l0.297-0.387
					L24.574,35.363z"/>
				<path class="st19" d="M23.328,33.291c0,0,0.252,0.012,0.361,0.392c0.022,0.079,0.055,0.214,0.093,0.378
					c-0.095-0.516-0.211-1.093-0.291-1.249c-0.151-0.3-0.376-0.005-0.569,0.242c-0.051,0.065-0.104,0.112-0.154,0.146
					C23.223,33.27,23.328,33.291,23.328,33.291z"/>
				<polygon class="st6" points="23.691,31.224 23.922,32.139 25.645,32.291 25.389,31.463 				"/>
				<path class="st16" d="M22.931,30c0,0,1.397,0.199,1.633,0.236c0.351,0.054,0.586,0.549,0.74,0.888l-1.671-0.23
					C23.633,30.894,23.232,30.012,22.931,30z"/>
				<polygon class="st6" points="24.436,35.716 24.668,35.461 26.232,35.389 26.053,35.6 				"/>
			</g>
		</g>
	</g>
</g>
<rect id="_x3C_Slice_x3E_" class="st17" width="166" height="40"/>
</svg>
