<?xml version="1.0" encoding="UTF-8"?>
<svg width="385px" height="132px" viewBox="0 0 385 132" version="1.1" xmlns="http://www.w3.org/2000/svg" xmlns:xlink="http://www.w3.org/1999/xlink">
    <!-- Generator: Sketch 51.3 (57544) - http://www.bohemiancoding.com/sketch -->
    <title>ios_rufus_app_sk</title>
    <desc>Created with Sketch.</desc>
    <defs></defs>
    <g id="Page-1" stroke="none" stroke-width="1" fill="none" fill-rule="evenodd">
        <g id="Card-B-1" transform="translate(-603.000000, -891.000000)" fill-rule="nonzero">
            <g id="ios_rufus_app_sk" transform="translate(603.000000, 891.000000)">
                <g id="Group">
                    <g id="Shape">
                        <path d="M354.266844,2.16840434e-19 L30.6698873,2.16840434e-19 C29.4903357,2.16840434e-19 28.3249373,2.16840434e-19 27.1485058,0.0066 C26.1637233,0.0132 25.1867895,0.032373 24.19255,0.04851 C22.0326023,0.0745859519 19.8777342,0.269531658 17.7466717,0.631653 C15.6186025,1.00165767 13.5571966,1.69922194 11.6321743,2.700753 C9.70950645,3.71075664 7.9527098,5.02315285 6.42551683,6.590331 C4.89030635,8.15310207 3.61058989,9.95945405 2.63557583,11.939928 C1.65787078,13.9164601 0.979926937,16.0344964 0.625159167,18.220884 C0.267018527,20.4045102 0.074299791,22.6133178 0.0487325,24.827484 C0.0188818333,25.839264 0.0157295,26.85441 0,27.866322 L0,104.14338 C0.0157295,105.16803 0.0188818333,106.16067 0.0487325,107.18565 C0.0743076314,109.399706 0.267026371,111.608404 0.625159167,113.79192 C0.978947315,115.979586 1.65693124,118.098838 2.63557583,120.07611 C3.61014718,122.05018 4.89004361,123.849218 6.42551683,125.4033 C7.94691917,126.977446 9.70485136,128.290735 11.6321743,129.29301 C13.557182,130.297221 15.6183656,130.998938 17.7466717,131.37465 C19.8780964,131.733871 22.032743,131.928896 24.19255,131.95809 C25.1867895,131.98053 26.1637233,131.9934 27.1485058,131.9934 C28.3249052,132 29.4904,132 30.6698873,132 L354.266844,132 C355.422914,132 356.597641,132 357.753711,131.9934 C358.733828,131.9934 359.739038,131.98053 360.719154,131.95809 C362.874879,131.930448 365.025469,131.735411 367.152488,131.37465 C369.287662,130.996293 371.356232,130.294763 373.290531,129.29301 C375.216117,128.290155 376.972427,126.976902 378.492524,125.4033 C380.024037,123.843132 381.306666,122.045409 382.293338,120.07611 C383.264639,118.0974 383.93617,115.978317 384.284778,113.79192 C384.643484,111.608104 384.843039,109.399898 384.881791,107.18565 C384.894334,106.16067 384.894334,105.16803 384.894334,104.14338 C384.919424,102.94449 384.919424,101.7522 384.919424,100.53384 L384.919424,31.469229 C384.919424,30.260736 384.919424,29.061912 384.894334,27.866322 C384.894334,26.85441 384.894334,25.839264 384.881791,24.827352 C384.843049,22.6129941 384.64349,20.4046777 384.284778,18.220752 C383.935197,16.0356293 383.263709,13.9177608 382.293338,11.939796 C380.307767,7.97014706 377.159228,4.73888382 373.290531,2.700456 C371.356229,1.70137235 369.287434,1.00399335 367.152488,0.631356 C365.025836,0.267639184 362.875024,0.0726256242 360.719154,0.048048 C359.739038,0.031944 358.733828,0.012606 357.753711,0.006171 C356.597641,-0.000429 355.422914,-0.000429 354.266844,-0.000429 L354.266844,2.16840434e-19 Z" fill="#A6A6A6"></path>
                        <path d="M27.1642032,129.1125 C26.1841492,129.1125 25.2277698,129.09963 24.2554037,129.07719 C22.2410684,129.050264 20.2314411,128.870362 18.2430033,128.53896 C16.3888855,128.211363 14.5927437,127.601973 12.913823,126.73089 C11.2502971,125.867025 9.73302784,124.734301 8.42013967,123.37611 C7.08824772,122.033918 5.97938684,120.477205 5.13749917,118.76766 C4.28633462,117.047004 3.6972781,115.202669 3.39084917,113.2989 C3.05993252,111.253279 2.8808929,109.184834 2.85527417,107.1114 C2.8348805,106.41543 2.80818217,104.09817 2.80818217,104.09817 L2.80818217,27.866322 C2.80818217,27.866322 2.8366175,25.584669 2.855435,24.91434 C2.87996474,22.8441908 3.05796324,20.7789552 3.38788983,18.736509 C3.69488441,16.8275253 4.28439694,14.9778713 5.1360195,13.251579 C5.97481301,11.5432147 7.07751775,9.98533896 8.4013865,8.638344 C9.72376727,7.27855069 11.24589,6.1399936 12.9122468,5.264193 C14.5873088,4.39590888 16.3800562,3.79081742 18.2304262,3.469191 C20.2253943,3.13445926 22.2419982,2.95348708 24.2633167,2.927793 L27.1657793,2.8875 L357.737948,2.8875 L360.675088,2.92941 C362.678019,2.95382735 364.676304,3.13318502 366.652941,3.465957 C368.522042,3.79161773 370.333474,4.40093125 372.027668,5.273862 C375.365984,7.03885397 378.082309,9.83123774 379.795918,13.259631 C380.633947,14.9740059 381.214369,16.8085723 381.517478,18.701067 C381.851335,20.7602716 382.038182,22.8417365 382.076534,24.92886 C382.085864,25.86342 382.085864,26.86728 382.085864,27.866322 C382.111274,29.103822 382.111274,30.281691 382.111274,31.469229 L382.111274,100.53384 C382.111274,101.73273 382.111274,102.90258 382.085864,104.082 C382.085864,105.15516 382.085864,106.13823 382.073318,107.15001 C382.035796,109.19989 381.852064,111.244202 381.523591,113.26656 C381.223441,115.184062 380.637592,117.042793 379.786591,118.77756 C378.93875,120.46855 377.836258,122.011778 376.519744,123.35037 C375.205675,124.715859 373.685726,125.855211 372.018341,126.72462 C370.328839,127.602399 368.520072,128.214043 366.652941,128.53896 C364.664652,128.872131 362.654832,129.052045 360.640348,129.07719 C359.698184,129.09963 358.711634,129.1125 357.753711,129.1125 L354.266844,129.1191 L27.1642032,129.1125 Z" fill="#000000"></path>
                    </g>
                    <g id="_Group_" transform="translate(31.950000, 28.400000)" fill="#FFFFFF">
                        <g id="_Group_2">
                            <g id="_Group_3">
                                <path d="M47.7232307,38.592244 C47.7935374,32.99389 50.6543956,27.8227142 55.3034987,24.890446 C52.3572656,20.5736921 47.5994276,17.9348986 42.4652673,17.770102 C37.063712,17.188444 31.8271393,21.086041 29.0746057,21.086041 C26.2688038,21.086041 22.0308455,17.827852 17.467264,17.924179 C11.4627807,18.1231968 6.00067456,21.5406341 3.07937133,26.92615 C-3.141662,37.975936 1.49866917,54.215401 7.457898,63.147214 C10.4394263,67.520869 13.923977,72.406354 18.4834412,72.233104 C22.9451508,72.043255 24.6115128,69.31432 29.9971777,69.31432 C35.3328557,69.31432 36.8962523,72.233104 41.5482277,72.12295 C46.33585,72.043222 49.3522793,67.729858 52.2292017,63.314788 C54.3714248,60.198399 56.0198622,56.7541105 57.1134527,53.109505 C51.4272114,50.6421983 47.7298676,44.9261132 47.7232307,38.592244 Z" id="_Path_"></path>
                                <path d="M38.9364873,11.895937 C41.5468981,8.6810503 42.8329482,4.54885809 42.5215267,0.376891 C38.5334001,0.806618607 34.849488,2.76206394 32.203811,5.853604 C29.5913269,8.9038238 28.2678484,12.8943278 28.5248773,16.946191 C32.5664801,16.9888823 36.4038968,15.1275056 38.9364877,11.895937 L38.9364873,11.895937 Z" id="_Path_2"></path>
                            </g>
                        </g>
                        <g id="Group" transform="translate(78.416667, 29.700000)">
                            <path d="M25.7056352,31.460845 L10.4798652,31.460845 L6.82341583,42.53713 L0.374385167,42.53713 L14.7959885,1.55773 L21.4963052,1.55773 L35.9179083,42.53713 L29.3589,42.53713 L25.7056352,31.460845 Z M12.0567717,26.349706 L24.125705,26.349706 L18.1761262,8.373715 L18.0096315,8.373715 L12.0567717,26.349706 Z" id="Shape"></path>
                            <path d="M67.0636693,27.600109 C67.0636693,36.884593 62.2198197,42.849706 54.9100733,42.849706 C51.1317295,43.0524732 47.5727359,41.0222013 45.7469803,37.622506 L45.6086637,37.622506 L45.6086637,52.42096 L39.6308103,52.42096 L39.6308103,12.659854 L45.4171433,12.659854 L45.4171433,17.629192 L45.527089,17.629192 C47.4339557,14.2508101 50.9967872,12.2214122 54.8001277,12.347245 C62.1914167,12.347278 67.0636693,18.341398 67.0636693,27.600109 Z M60.9193213,27.600109 C60.9193213,21.551209 57.8722697,17.574412 53.223189,17.574412 C48.6557797,17.574412 45.5836057,21.634963 45.5836057,27.600109 C45.5836057,33.620035 48.6557797,37.651579 53.223189,37.651579 C57.8723017,37.651579 60.9193213,33.703822 60.9193213,27.600109 Z" id="Shape"></path>
                            <path d="M99.117238,27.600109 C99.117238,36.884593 94.2733883,42.849706 86.963642,42.849706 C83.1852982,43.0524732 79.6263046,41.0222013 77.800549,37.622506 L77.6622323,37.622506 L77.6622323,52.42096 L71.684379,52.42096 L71.684379,12.659854 L77.4705833,12.659854 L77.4705833,17.629192 L77.580529,17.629192 C79.4874096,14.2508122 83.0502546,12.2214261 86.8536,12.347278 C94.245114,12.347278 99.117238,18.341398 99.117238,27.600109 Z M92.97289,27.600109 C92.97289,21.551209 89.9258383,17.574412 85.2767577,17.574412 C80.7093483,17.574412 77.6371743,21.634963 77.6371743,27.600109 C77.6371743,33.620035 80.7093483,37.651579 85.2767577,37.651579 C89.9258703,37.651579 92.9729223,33.703822 92.9729223,27.600109 L92.97289,27.600109 Z" id="Shape"></path>
                            <path d="M120.302012,31.119229 C120.744947,35.183014 124.593045,37.851229 129.851491,37.851229 C134.89011,37.851229 138.515132,35.182882 138.515132,31.518694 C138.515132,28.337923 136.328796,26.433394 131.151989,25.128178 L125.975182,23.848768 C118.640314,22.031194 115.235151,18.512041 115.235151,12.80149 C115.235151,5.730976 121.241278,0.874432 129.76982,0.874432 C138.210353,0.874432 143.996654,5.730976 144.191423,12.80149 L138.156957,12.80149 C137.795725,8.711932 134.500507,6.2434 129.684932,6.2434 C124.869357,6.2434 121.574171,8.740972 121.574171,12.37612 C121.574171,15.273289 123.678836,16.978069 128.827369,18.28312 L133.228283,19.391722 C141.423868,21.380104 144.829031,24.757522 144.829031,30.751576 C144.829031,38.418268 138.8763,43.220032 129.408492,43.220032 C120.550081,43.220032 114.569108,38.531062 114.182722,31.118932 L120.302012,31.119229 Z" id="Shape"></path>
                            <path d="M157.730309,5.58934 L157.730309,12.659854 L163.26838,12.659854 L163.26838,17.516398 L157.730309,17.516398 L157.730309,33.987391 C157.730309,36.546178 158.83919,37.738567 161.27366,37.738567 C161.931119,37.7268055 162.587515,37.6794396 163.240105,37.596667 L163.240105,42.424204 C162.145564,42.6340167 161.033056,42.7290398 159.919765,42.707806 C154.023615,42.707806 151.724181,40.435822 151.724181,34.641484 L151.724181,17.516398 L147.489761,17.516398 L147.489761,12.659854 L151.724117,12.659854 L151.724117,5.58934 L157.730309,5.58934 Z" id="Shape"></path>
                            <path d="M166.47575,27.600109 C166.47575,18.19963 171.872448,12.292498 180.287956,12.292498 C188.731706,12.292498 194.103282,18.199498 194.103282,27.600109 C194.103282,37.026394 188.75998,42.90772 180.287956,42.90772 C171.818923,42.90772 166.47575,37.026361 166.47575,27.600109 Z M188.01233,27.600109 C188.01233,21.151579 185.131773,17.345623 180.287924,17.345623 C175.444074,17.345623 172.566669,21.180586 172.566669,27.600109 C172.566669,34.074412 175.444074,37.851394 180.287924,37.851394 C185.131773,37.851394 188.012202,34.074412 188.012202,27.600109 L188.01233,27.600109 Z" id="Shape"></path>
                            <path d="M199.031826,12.659854 L204.733239,12.659854 L204.733239,17.745154 L204.871556,17.745154 C205.666639,14.4715158 208.590449,12.2184841 211.876587,12.347212 C212.565482,12.3447444 213.252475,12.4214975 213.924703,12.576034 L213.924703,18.312358 C213.055016,18.039723 212.147783,17.9145473 211.238787,17.941768 C209.481355,17.868625 207.780551,18.5871646 206.582956,19.9087197 C205.385361,21.2302748 204.810621,23.0228134 205.009647,24.815668 L205.009647,42.537064 L199.031794,42.537064 L199.031826,12.659854 Z" id="Shape"></path>
                            <path d="M241.486165,33.761803 C240.681998,39.185518 235.533434,42.907687 228.946183,42.907687 C220.474158,42.907687 215.21568,37.084342 215.21568,27.741877 C215.21568,18.370405 220.502433,12.292465 228.694897,12.292465 C236.752261,12.292465 241.819154,17.970775 241.819154,27.029671 L241.819154,29.130847 L221.250083,29.130847 L221.250083,29.501437 C221.058039,31.7257413 221.8067,33.927494 223.305629,35.5466407 C224.804558,37.1657873 226.909285,38.0462699 229.084435,37.964122 C231.985361,38.2429707 234.720367,36.5340264 235.809906,33.76177 L241.486165,33.761803 Z M221.278276,24.844741 L235.838149,24.844708 C235.946632,22.8460217 235.237457,20.8915162 233.881483,19.4520841 C232.525508,18.012652 230.645679,17.2188054 228.694897,17.261803 C226.728683,17.2497654 224.839242,18.0439843 223.446537,19.4679297 C222.053832,20.8918751 221.273263,22.8275596 221.278276,24.844741 Z" id="Shape"></path>
                        </g>
                    </g>
                </g>
                <g id="_Group_4" transform="translate(116.470085, 24.100000)" fill="#FFFFFF">
                    <g id="Group">
                        <path d="M3.13740725,19.107758 C3.3844294,20.976911 5.13508374,22.164449 7.66069767,22.164449 C10.0134309,22.164449 11.739266,20.896325 11.739266,19.149668 C11.739266,17.647904 10.6400761,16.747268 8.14222168,16.13327 L5.7123118,15.51947 C2.30054193,14.686418 0.744394209,12.967118 0.744394209,10.0748 C0.744394209,6.5669 3.48923912,4.2338 7.60808729,4.2338 C10.9781748,3.84143304 14.0178252,6.36714166 14.4069343,9.883103 L11.5540232,9.883103 C11.1647376,7.96632239 9.42976193,6.68341808 7.56815526,6.935807 C5.25247693,6.935807 3.71175822,8.095955 3.71175822,9.870035 C3.71175822,11.275109 4.70594876,12.080771 7.16368143,12.680183 L9.24163299,13.213529 C13.1103606,14.154557 14.7066617,15.791654 14.7066617,18.753272 C14.7066617,22.518935 11.9093013,24.879557 7.43849473,24.879557 C3.25483208,24.879557 0.442042663,22.628528 0.232075436,19.107857 L3.13740725,19.107758 Z" id="Shape"></path>
                        <path d="M22.4255262,5.843309 L22.4255262,9.610589 L25.5100305,9.610589 L25.5100305,12.080771 L22.4255262,12.080771 L22.4255262,19.72169 C22.4255262,21.278234 23.0399673,21.959816 24.4386317,21.959816 C24.7967097,21.9586199 25.1544282,21.9360219 25.5100305,21.892133 L25.5100305,24.334892 C25.0054563,24.4291094 24.4942318,24.4792341 23.9816739,24.484745 C20.8570479,24.484745 19.6127368,23.337467 19.6127368,20.472539 L19.6127368,12.080639 L17.3526408,12.080639 L17.3526408,9.610457 L19.6127368,9.610457 L19.6127368,5.843309 L22.4255262,5.843309 Z" id="Shape"></path>
                        <path d="M28.850789,5.148824 C28.8064517,4.37162816 29.2209116,3.64485824 29.8965866,3.31498133 C30.5722616,2.98510442 31.3723805,3.1188947 31.9155093,3.65257143 C32.458638,4.18624812 32.6348355,5.01178368 32.3601048,5.73562716 C32.085374,6.45947068 31.4153262,6.9351007 30.6693879,6.935774 C30.1985569,6.96083285 29.7383107,6.78431367 29.3950464,6.44702318 C29.0517822,6.10973272 28.855216,5.64086997 28.850789,5.148824 Z M29.2706602,9.542906 L32.0680205,9.542906 L32.0680205,24.402575 L29.2706602,24.402575 L29.2706602,9.542906 Z" id="Shape"></path>
                        <path d="M35.7885604,20.200256 C35.7885604,17.525441 37.6966979,15.983417 41.0837434,15.764264 L44.9401404,15.532241 L44.9401404,14.24963 C44.9401404,12.680183 43.9459499,11.793968 42.0254818,11.793968 C40.4570034,11.793968 39.3701755,12.394997 39.0583073,13.445585 L36.3381551,13.445585 C36.6252992,10.893233 38.9255484,9.256136 42.1551421,9.256136 C45.7243954,9.256136 47.7375008,11.110736 47.7375008,14.24963 L47.7375008,24.402608 L45.0327777,24.402608 L45.0327777,22.314335 L44.81048,22.314335 C43.8918492,23.8393519 42.2582246,24.7306387 40.53418,24.647435 C39.3255836,24.778649 38.1202089,24.3701052 37.2160461,23.5228031 C36.3118834,22.675501 35.7933221,21.4685229 35.7885604,20.200256 Z M44.9401404,18.930515 L44.9401404,17.688197 L41.4635245,17.92022 C39.5029031,18.05717 38.6136802,18.753272 38.6136802,20.063273 C38.6136802,21.400664 39.7252009,22.178936 41.2536837,22.178936 C42.1585129,22.2745365 43.0617743,21.9827677 43.7566931,21.3704214 C44.4516115,20.7580752 44.8786826,19.8775855 44.9401404,18.930515 Z" id="Shape"></path>
                        <path d="M52.2668935,3.7421 L55.0519864,3.7421 L55.0519864,11.930885 L55.2742841,11.930885 C56.0394988,10.1776562 57.7754906,9.11313888 59.6152721,9.268973 C61.0105114,9.18973102 62.3669411,9.76395224 63.3151006,10.8352317 C64.2632601,11.9065112 64.7043925,13.3632686 64.5183438,14.808716 L64.5183438,24.402575 L61.7056175,24.402575 L61.7056175,15.532175 C61.7056175,13.158683 60.6464543,11.956625 58.6612665,11.956625 C57.6837664,11.8729491 56.7207188,12.2438602 56.0295855,12.9701986 C55.3384525,13.696537 54.9897074,14.704239 55.0765845,15.723905 L55.0765845,24.402509 L52.2668935,24.402575 L52.2668935,3.7421 Z" id="Shape"></path>
                        <path d="M68.8627147,9.542906 L71.5674378,9.542906 L71.5674378,11.903495 L71.777405,11.903495 C72.5075474,10.1654772 74.213679,9.10231465 76.0259137,9.25607 C77.4291207,9.14595484 78.8041645,9.70780667 79.7628018,10.7829868 C80.721439,11.858167 81.1596394,13.3299984 80.9536781,14.78291 L80.9536781,24.40241 L78.1439871,24.40241 L78.1439871,15.519338 C78.1439871,13.131359 77.1497965,11.943788 75.0718447,11.943788 C74.120071,11.8975191 73.1963997,12.2873925 72.5429888,13.0111954 C71.8895782,13.7349983 71.5715954,14.7205433 71.6724057,15.709451 L71.6724057,24.402575 L68.8627147,24.402575 L68.8627147,9.542906 Z" id="Shape"></path>
                        <path d="M97.3039631,24.402575 L94.5961414,24.402575 L94.5961414,22.041986 L94.3738437,22.041986 C93.6346405,23.7986343 91.9017961,24.8648819 90.0713016,24.689411 C88.6767295,24.7926461 87.3123062,24.2316276 86.3598912,23.1633669 C85.4074761,22.0951063 84.9693869,20.6343659 85.1682303,19.189961 L85.1682303,9.542906 L87.9810196,9.542906 L87.9810196,18.426143 C87.9810196,20.827025 88.9073922,21.974303 90.9728868,21.974303 C91.9429605,22.07044 92.9028376,21.7048058 93.5855482,20.9790939 C94.2682588,20.253382 94.6009806,19.2450019 94.4911735,18.234413 L94.4911735,9.542906 L97.3039631,9.542906 L97.3039631,24.402575 Z" id="Shape"></path>
                        <path d="M105.584848,5.843309 L105.584848,9.610589 L108.669226,9.610589 L108.669226,12.080771 L105.584721,12.080771 L105.584721,19.72169 C105.584721,21.278234 106.199163,21.959816 107.597827,21.959816 C107.955906,21.9586089 108.313624,21.9359999 108.669226,21.8921 L108.669226,24.334859 C108.164672,24.4292316 107.653435,24.4793576 107.140869,24.484712 C104.016243,24.484712 102.771932,23.337434 102.771932,20.472506 L102.771932,12.080606 L100.512089,12.080606 L100.512089,9.610424 L102.772185,9.610424 L102.772185,5.843309 L105.584848,5.843309 Z M109.780873,0.835295 L109.126405,7.589966 L107.178145,7.589966 L107.178145,0.835295 L109.780873,0.835295 Z" id="Shape"></path>
                        <path d="M120.099556,9.542906 L122.804279,9.542906 L122.804279,11.903495 L123.014246,11.903495 C123.744389,10.1654772 125.45052,9.10231465 127.262755,9.25607 C128.665962,9.14595484 130.041006,9.70780667 130.999643,10.7829868 C131.95828,11.858167 132.396481,13.3299984 132.190519,14.78291 L132.190519,24.40241 L129.380828,24.40241 L129.380828,15.519338 C129.380828,13.131359 128.386638,11.943788 126.308686,11.943788 C125.356912,11.8975191 124.433241,12.2873925 123.77983,13.0111954 C123.12642,13.7349983 122.808437,14.7205433 122.909247,15.709451 L122.909247,24.402575 L120.099556,24.402575 L120.099556,9.542906 Z" id="Shape"></path>
                        <path d="M135.725784,20.200256 C135.725784,17.525441 137.633922,15.983417 141.020967,15.764264 L144.877365,15.532241 L144.877365,14.24963 C144.877365,12.680183 143.883174,11.793968 141.962706,11.793968 C140.394228,11.793968 139.3074,12.394997 138.995531,13.445585 L136.27538,13.445585 C136.562523,10.893233 138.862773,9.256136 142.092367,9.256136 C145.66162,9.256136 147.674725,11.110736 147.674725,14.24963 L147.674725,24.402608 L144.970002,24.402608 L144.970002,22.314335 L144.747704,22.314335 C143.829073,23.8393519 142.195449,24.7306387 140.471404,24.647435 C139.262808,24.778649 138.057433,24.3701052 137.15327,23.5228031 C136.249107,22.675501 135.730546,21.4685229 135.725784,20.200256 Z M144.877365,18.930515 L144.877365,17.688197 L141.400749,17.92022 C139.440127,18.05717 138.550904,18.753272 138.550904,20.063273 C138.550904,21.400664 139.662425,22.178936 141.190908,22.178936 C142.095737,22.2745365 142.998999,21.9827677 143.693917,21.3704214 C144.388836,20.7580752 144.815907,19.8775855 144.877365,18.930515 Z" id="Shape"></path>
                    </g>
                </g>
            </g>
        </g>
    </g>
</svg>