<?xml version="1.0" encoding="UTF-8"?>
<svg width="446px" height="132px" viewBox="0 0 446 132" version="1.1" xmlns="http://www.w3.org/2000/svg" xmlns:xlink="http://www.w3.org/1999/xlink">
    <!-- Generator: Sketch 51.3 (57544) - http://www.bohemiancoding.com/sketch -->
    <title>google-play-badge_sk</title>
    <desc>Created with Sketch.</desc>
    <defs>
        <linearGradient x1="91.4837461%" y1="4.94692737%" x2="-38.4109907%" y2="71.9158021%" id="linearGradient-1">
            <stop stop-color="#00A0FF" offset="0%"></stop>
            <stop stop-color="#00A1FF" offset="0.657445%"></stop>
            <stop stop-color="#00BEFF" offset="26.01%"></stop>
            <stop stop-color="#00D2FF" offset="51.22%"></stop>
            <stop stop-color="#00DFFF" offset="76.04%"></stop>
            <stop stop-color="#00E3FF" offset="100%"></stop>
        </linearGradient>
        <linearGradient x1="107.622047%" y1="50.0163551%" x2="-130.536417%" y2="50.0163551%" id="linearGradient-2">
            <stop stop-color="#FFE000" offset="0%"></stop>
            <stop stop-color="#FFBD00" offset="40.87%"></stop>
            <stop stop-color="#FFA500" offset="77.54%"></stop>
            <stop stop-color="#FF9C00" offset="100%"></stop>
        </linearGradient>
        <linearGradient x1="86.2529976%" y1="17.8561511%" x2="-50.1876499%" y2="194.841319%" id="linearGradient-3">
            <stop stop-color="#FF3A44" offset="0%"></stop>
            <stop stop-color="#C31162" offset="100%"></stop>
        </linearGradient>
        <linearGradient x1="-18.7699221%" y1="-54.1643522%" x2="42.1204314%" y2="24.8666726%" id="linearGradient-4">
            <stop stop-color="#32A071" offset="0%"></stop>
            <stop stop-color="#2DA771" offset="6.85%"></stop>
            <stop stop-color="#15CF74" offset="47.62%"></stop>
            <stop stop-color="#06E775" offset="80.09%"></stop>
            <stop stop-color="#00F076" offset="100%"></stop>
        </linearGradient>
    </defs>
    <g id="Page-1" stroke="none" stroke-width="1" fill="none" fill-rule="evenodd">
        <g id="Card-B-1" transform="translate(-81.000000, -891.000000)" fill-rule="nonzero">
            <g id="google-play-badge_sk" transform="translate(81.000000, 891.000000)">
                <g id="Group">
                    <path d="M429.451613,132 L16.5483871,132 C7.46451613,132 0.0322580645,124.575 0.0322580645,115.5 L0.0322580645,16.5 C0.0322580645,7.425 7.46451613,0 16.5483871,0 L429.451613,0 C438.535484,0 445.967742,7.425 445.967742,16.5 L445.967742,115.5 C445.967742,124.575 438.535484,132 429.451613,132 Z" id="Shape" fill="#000000"></path>
                    <path d="M429.451613,2.64 C437.115097,2.64 443.325161,8.844 443.325161,16.5 L443.325161,115.5 C443.325161,123.156 437.115097,129.36 429.451613,129.36 L16.5483871,129.36 C8.88490323,129.36 2.67483871,123.156 2.67483871,115.5 L2.67483871,16.5 C2.67483871,8.844 8.88490323,2.64 16.5483871,2.64 L429.451613,2.64 Z M429.451613,0 L16.5483871,0 C7.46451613,0 0.0322580645,7.425 0.0322580645,16.5 L0.0322580645,115.5 C0.0322580645,124.575 7.46451613,132 16.5483871,132 L429.451613,132 C438.535484,132 445.967742,124.575 445.967742,115.5 L445.967742,16.5 C445.967742,7.425 438.535484,0 429.451613,0 Z" id="Shape" fill="#A6A6A6"></path>
                    <path d="M225.114065,71.775 C217.351484,71.775 211.00929,77.682 211.00929,85.8 C211.00929,93.885 217.351484,99.825 225.114065,99.825 C232.876645,99.825 239.218839,93.885 239.218839,85.8 C239.218839,77.682 232.876645,71.775 225.114065,71.775 Z M225.114065,94.314 C220.852903,94.314 217.186323,90.816 217.186323,85.8 C217.186323,80.751 220.852903,77.286 225.114065,77.286 C229.375226,77.286 233.041806,80.751 233.041806,85.8 C233.041806,90.816 229.342194,94.314 225.114065,94.314 Z M194.328,71.775 C186.565419,71.775 180.223226,77.682 180.223226,85.8 C180.223226,93.885 186.565419,99.825 194.328,99.825 C202.090581,99.825 208.432774,93.885 208.432774,85.8 C208.432774,77.682 202.090581,71.775 194.328,71.775 Z M194.328,94.314 C190.066839,94.314 186.400258,90.816 186.400258,85.8 C186.400258,80.751 190.066839,77.286 194.328,77.286 C198.589161,77.286 202.255742,80.751 202.255742,85.8 C202.255742,90.816 198.589161,94.314 194.328,94.314 Z M157.728258,76.098 L157.728258,82.038 L171.998194,82.038 C171.568774,85.371 170.445677,87.846 168.761032,89.529 C166.68,91.608 163.442839,93.885 157.76129,93.885 C148.97471,93.885 142.104,86.823 142.104,78.045 C142.104,69.267 148.97471,62.205 157.76129,62.205 C162.484903,62.205 165.95329,64.053 168.496774,66.462 L172.691871,62.271 C169.124387,58.872 164.400774,56.265 157.728258,56.265 C145.704516,56.265 135.596645,66.033 135.596645,78.078 C135.596645,90.09 145.704516,99.891 157.728258,99.891 C164.235613,99.891 169.124387,97.779 172.956129,93.786 C176.886968,89.859 178.109161,84.315 178.109161,79.86 C178.109161,78.474 178.010065,77.187 177.778839,76.131 L157.728258,76.131 L157.728258,76.098 Z M307.397419,80.718 C306.24129,77.583 302.673806,71.775 295.373677,71.775 C288.139613,71.775 282.127742,77.451 282.127742,85.8 C282.127742,93.654 288.073548,99.825 296.067355,99.825 C302.508645,99.825 306.24129,95.898 307.760774,93.621 L302.971097,90.42 C301.385548,92.763 299.205419,94.314 296.067355,94.314 C292.92929,94.314 290.683097,92.862 289.26271,90.057 L308.058065,82.302 L307.397419,80.718 Z M288.23871,85.404 C288.073548,79.992 292.433806,77.22 295.571871,77.22 C298.016258,77.22 300.09729,78.441 300.790968,80.19 L288.23871,85.404 Z M272.977806,99 L279.154839,99 L279.154839,57.75 L272.977806,57.75 L272.977806,99 Z M262.869935,74.91 L262.63871,74.91 C261.251355,73.26 258.608774,71.775 255.239484,71.775 C248.203613,71.775 241.762323,77.946 241.762323,85.866 C241.762323,93.72 248.203613,99.858 255.239484,99.858 C258.575742,99.858 261.251355,98.373 262.63871,96.657 L262.836903,96.657 L262.836903,98.67 C262.836903,104.049 259.963097,106.92 255.338581,106.92 C251.572903,106.92 249.227613,104.214 248.269677,101.937 L242.885419,104.181 C244.437935,107.91 248.533935,112.464 255.338581,112.464 C262.572645,112.464 268.683613,108.207 268.683613,97.845 L268.683613,72.633 L262.836903,72.633 L262.836903,74.91 L262.869935,74.91 Z M255.768,94.314 C251.506839,94.314 247.939355,90.75 247.939355,85.866 C247.939355,80.916 251.506839,77.319 255.768,77.319 C259.963097,77.319 263.266323,80.949 263.266323,85.866 C263.299355,90.75 259.996129,94.314 255.768,94.314 Z M336.333677,57.75 L321.568258,57.75 L321.568258,99 L327.74529,99 L327.74529,83.358 L336.36671,83.358 C343.204387,83.358 349.909935,78.408 349.909935,70.554 C349.909935,62.7 343.138323,57.75 336.333677,57.75 Z M336.465806,77.616 L327.712258,77.616 L327.712258,63.459 L336.465806,63.459 C341.090323,63.459 343.699871,67.287 343.699871,70.521 C343.699871,73.755 341.090323,77.616 336.465806,77.616 Z M374.585032,71.709 C370.125677,71.709 365.501161,73.689 363.58529,78.012 L369.068645,80.289 C370.224774,78.012 372.404903,77.253 374.684129,77.253 C377.855226,77.253 381.125419,79.167 381.158452,82.566 L381.158452,82.995 C380.035355,82.368 377.657032,81.411 374.717161,81.411 C368.804387,81.411 362.825548,84.645 362.825548,90.684 C362.825548,96.195 367.648258,99.759 373.065548,99.759 C377.194581,99.759 379.506839,97.911 380.927226,95.733 L381.125419,95.733 L381.125419,98.934 L387.071226,98.934 L387.071226,83.127 C387.104258,75.801 381.620903,71.709 374.585032,71.709 Z M373.82529,94.314 C371.810323,94.314 369.002581,93.291 369.002581,90.816 C369.002581,87.648 372.504,86.427 375.542968,86.427 C378.251613,86.427 379.539871,87.021 381.158452,87.813 C380.696,91.608 377.392774,94.314 373.82529,94.314 Z M408.773419,72.6 L401.704516,90.486 L401.506323,90.486 L394.173161,72.6 L387.533677,72.6 L398.533419,97.614 L392.25729,111.507 L398.698581,111.507 L415.644129,72.6 L408.773419,72.6 Z M353.279226,99 L359.456258,99 L359.456258,57.75 L353.279226,57.75 L353.279226,99 Z" id="Shape" fill="#FFFFFF"></path>
                    <g transform="translate(32.761290, 23.100000)" id="Shape">
                        <path d="M1.75664516,1.782 C0.798709677,2.805 0.23716129,4.389 0.23716129,6.402 L0.23716129,79.398 C0.23716129,81.444 0.798709677,83.028 1.75664516,84.018 L1.98787097,84.249 L42.9148387,43.395 L42.9148387,42.9 L42.9148387,42.405 L1.98787097,1.551 L1.75664516,1.782 Z" fill="url(#linearGradient-1)"></path>
                        <path d="M56.5571613,57.024 L42.9148387,43.395 L42.9148387,42.9 L42.9148387,42.405 L56.5571613,28.776 L56.8544516,28.941 L73.0072258,38.115 C77.6317419,40.722 77.6317419,45.012 73.0072258,47.652 L56.8544516,56.826 L56.5571613,57.024 Z" fill="url(#linearGradient-2)"></path>
                        <path d="M56.8544516,56.826 L42.9148387,42.9 L1.75664516,84.018 C3.27612903,85.635 5.78658065,85.833 8.62735484,84.216 L56.8544516,56.826" fill="url(#linearGradient-3)"></path>
                        <path d="M56.8544516,28.974 L8.59432258,1.584 C5.75354839,-0.033 3.24309677,0.165 1.7236129,1.782 L42.9148387,42.9 L56.8544516,28.974 Z" fill="url(#linearGradient-4)"></path>
                        <g transform="translate(0.000000, 56.100000)" fill="#000000">
                            <path d="M56.5571613,0.429 L8.59432258,27.654 C5.91870968,29.172 3.50735484,29.073 1.98787097,27.687 L1.75664516,27.918 L1.98787097,28.149 C3.5403871,29.535 5.91870968,29.634 8.59432258,28.116 L56.8544516,0.726 L56.5571613,0.429 Z" opacity="0.2"></path>
                            <path d="M1.75664516,27.456 C0.798709677,26.433 0.23716129,24.849 0.23716129,22.836 L0.23716129,23.331 C0.23716129,25.377 0.798709677,26.961 1.75664516,27.951 L1.98787097,27.72 L1.75664516,27.456 Z" opacity="0.12"></path>
                        </g>
                        <path d="M73.0072258,47.19 L56.524129,56.529 L56.8214194,56.826 L72.9741935,47.652 C75.2864516,46.332 76.4425806,44.616 76.4425806,42.9 C76.2774194,44.451 75.1212903,46.002 73.0072258,47.19 Z" fill="#000000" opacity="0.12"></path>
                        <path d="M8.59432258,2.046 L73.0072258,38.61 C75.0882581,39.798 76.2774194,41.316 76.4756129,42.9 C76.4756129,41.184 75.3194839,39.435 73.0072258,38.148 L8.59432258,1.584 C3.96980645,-1.023 0.204129032,1.155 0.204129032,6.435 L0.204129032,6.93 C0.204129032,1.617 4.00283871,-0.561 8.59432258,2.046 Z" fill="#FFFFFF" opacity="0.25"></path>
                    </g>
                </g>
                <g id="Group" transform="translate(135.464516, 23.100000)" fill="#FFFFFF" stroke="#FFFFFF" stroke-width="0.66">
                    <polygon id="Shape" points="8.88567742 19.8 6.34219355 19.8 6.34219355 2.442 0.792774194 2.442 0.792774194 0 14.4020645 0 14.4020645 2.442 8.85264516 2.442 8.85264516 19.8"></polygon>
                    <polygon id="Shape" points="29.2005161 2.442 20.1827097 2.442 20.1827097 8.712 28.3086452 8.712 28.3086452 11.088 20.1827097 11.088 20.1827097 17.358 29.2005161 17.358 29.2005161 19.8 17.6392258 19.8 17.6392258 0 29.2005161 0"></polygon>
                    <path d="M33.1974194,19.8 L33.1974194,0 L39.936,0 C41.6206452,0 43.0740645,0.561 44.2962581,1.683 C45.5184516,2.805 46.1460645,4.191 46.1460645,5.907 C46.1460645,7.293 45.6836129,8.514 44.7917419,9.57 C43.899871,10.626 42.7767742,11.286 41.4224516,11.583 L41.3563871,11.649 L46.9058065,19.701 L46.9058065,19.8 L43.899871,19.8 L38.5486452,11.781 L35.707871,11.781 L35.707871,19.8 L33.1974194,19.8 Z M35.7409032,9.405 L39.8369032,9.405 C40.8609032,9.405 41.7197419,9.075 42.4464516,8.415 C43.1731613,7.755 43.5365161,6.897 43.5365161,5.907 C43.5365161,5.049 43.2061935,4.257 42.5785806,3.531 C41.9179355,2.805 41.0590968,2.442 40.0020645,2.442 L35.7409032,2.442 L35.7409032,9.405 Z" id="Shape"></path>
                    <path d="M48.0949677,19.8 L55.5602581,0 L58.4340645,0 L65.8993548,19.8 L63.0916129,19.8 L61.1757419,14.421 L52.8516129,14.421 L50.9027097,19.8 L48.0949677,19.8 Z M53.7104516,12.045 L60.283871,12.045 L57.0467097,3.102 L56.9476129,3.102 L53.7104516,12.045 Z" id="Shape"></path>
                    <polygon id="Shape" points="67.6830968 19.8 67.6830968 17.16 78.2203871 2.442 68.1125161 2.442 68.1125161 0 81.1932903 0 81.1932903 2.64 70.656 17.358 81.3254194 17.358 81.3254194 19.8"></polygon>
                    <polygon id="Shape" points="91.5984516 19.8 91.5984516 0 94.7034839 0 104.348903 15.411 104.448 15.411 104.348903 11.583 104.348903 0 106.892387 0 106.892387 19.8 104.249806 19.8 94.1749677 3.663 94.075871 3.663 94.1749677 7.491 94.1749677 19.8"></polygon>
                    <path d="M109.766194,19.8 L117.231484,0 L120.10529,0 L127.570581,19.8 L124.762839,19.8 L122.846968,14.421 L114.522839,14.421 L112.573935,19.8 L109.766194,19.8 Z M115.381677,12.045 L121.955097,12.045 L118.717935,3.102 L118.618839,3.102 L115.381677,12.045 Z" id="Shape"></path>
                </g>
            </g>
        </g>
    </g>
</svg>